…
```r
filter(diamonds, x == 0 | y == 0 | z == 0)
#> # A tibble: 20 x 10
#>   carat cut     color clarity depth table price     x     y     z
#>   <dbl> <ord>   <ord> <ord>   <dbl> <dbl> <int> <dbl> <dbl> <dbl>
#> 1  1    Premium G     SI2      59.1    59  3142  6.55  6.48     0
#> 2  1.01 Premium H     I1       58.1    59  3167  6.66  6.6      0
#> 3  1.1  Premium G     SI2      63      59  3696  6.5   6.47     0
#> 4  1.01 Premium F     SI2      59.2    58  3837  6.5   6.47     0
#> 5  1.5  Good    G     I1       64      61  4731  7.15  7.04     0
#> 6  1.07 Ideal   F     SI2      61.6    56  4954  0     6.62     0
#> # … with 14 more rows
```
…
