7 Exploratory Data Analysis | R for Data Science: Exercise Solutions
…
summary(select(diamonds, x, y, z))
#>        x               y              z       
#>  Min.   : 0.00   Min.   : 0.0   Min.   : 0.0  
#>  1st Qu.: 4.71   1st Qu.: 4.7   1st Qu.: 2.9  
#>  Median : 5.70   Median : 5.7   Median : 3.5  
#>  Mean   : 5.73   Mean   : 5.7   Mean   : 3.5  
#>  3rd Qu.: 6.54   3rd Qu.: 6.5   3rd Qu.: 4.0  
#>  Max.   :10.74   Max.   :58.9   Max.   :31.8

These appear to be either data entry errors, or an undocumented convention in the dataset for indicating missing values. An alternative hypothesis would be that values of zero are the
result of rounding values like 0.002 down, but since there are no diamonds with values of 0.01, that does not seem to be the case.

filter(diamonds, x == 0 | y == 0 | z == 0)
#> # A tibble: 20 x 10
#>   carat cut     color clarity depth table price     x     y     z
#>   <dbl> <ord>   <ord> <ord>   <dbl> <dbl> <int> <dbl> <dbl> <dbl>
#> 1  1    Premium G     SI2      59.1    59  3142  6.55  6.48     0
#> 2  1.01 Premium H     I1       58.1    59  3167  6.66  6.6      0
#> 3  1.1  Premium G     SI2      63      59  3696  6.5   6.47     0
#> 4  1.01 Premium F     SI2      59.2    58  3837  6.5   6.47     0
#> 5  1.5  Good    G     I1       64      61  4731  7.15  7.04     0
#> 6  1.07 Ideal   F     SI2      61.6    56  4954  0     6.62     0
#> # … with 14 more rows
…
