…
by_country <- by_country %>%
  mutate(model = map(data, country_model))
```


```r
by_country <- by_country %>%
  mutate(
    resids = map2(data, model, add_residuals)
  )
by_country
#> # A tibble: 142 x 5
#> # Groups:   country, continent [142]
#>   country     continent data              model  resids           
#>   <fct>       <fct>     <list>            <list> <list>           
#> 1 Afghanistan Asia      <tibble [12 × 4]> <lm>   <tibble [12 × 5]>
#> 2 Albania     Europe    <tibble [12 × 4]> <lm>   <tibble [12 × 5]>
#> 3 Algeria     Africa    <tibble [12 × 4]> <lm>   <tibble [12 × 5]>
#> 4 Angola      Africa    <tibble [12 × 4]> <lm>   <tibble [12 × 5]>
#> 5 Argentina   Americas  <tibble [12 × 4]> <lm>   <tibble [12 × 5]>
#> 6 Australia   Oceania   <tibble [12 × 4]> <lm>   <tibble [12 × 5]>
#> # … with 136 more rows
```
…
What’s missing in the following data frame? 
How does `quantile()` return that missing piece? 
Why isn’t that helpful here?


```r
mtcars %>%
  group_by(cyl) %>%
  summarise(q = list(quantile(mpg))) %>%
  unnest()
#> `summarise()` ungrouping output (override with `.groups` argument)
#> Warning: `cols` is now required when using unnest().
#> Please use `cols = c(q)`
#> # A tibble: 15 x 2
#>     cyl     q
#>   <dbl> <dbl>
#> 1     4  21.4
#> 2     4  22.8
#> 3     4  26  
#> 4     4  30.4
#> 5     4  33.9
#> 6     6  17.8
#> # … with 9 more rows
```
…
