24 Model building | R for Data Science: Exercise Solutions
…
Exercise 24.2.3

Extract the diamonds that have very high and very low residuals. Is there anything unusual about these diamonds? Are they particularly bad or good, or do you think these are pricing errors?

The answer to this question is provided in section 24.2.2.

diamonds2 %>%
  filter(abs(lresid2) > 1) %>%
  add_predictions(mod_diamond2) %>%
  mutate(pred = round(2^pred)) %>%
  select(price, pred, carat:table, x:z) %>%
  arrange(price)
#> # A tibble: 16 x 11
#>   price  pred carat cut     color clarity depth table     x     y     z
#>   <int> <dbl> <dbl> <ord>   <ord> <ord>   <dbl> <dbl> <dbl> <dbl> <dbl>
#> 1  1013   264  0.25 Fair    F     SI2      54.4    64  4.3   4.23  2.32
#> 2  1186   284  0.25 Premium G     SI2      59      60  5.33  5.28  3.12
#> 3  1186   284  0.25 Premium G     SI2      58.8    60  5.33  5.28  3.12
#> 4  1262  2644  1.03 Fair    E     I1       78.2    54  5.72  5.59  4.42
#> 5  1415   639  0.35 Fair    G     VS2      65.9    54  5.57  5.53  3.66
#> 6  1415   639  0.35 Fair    G     VS2      65.9    54  5.57  5.53  3.66
#> # … with 10 more rows
…
24.3 What affects the number of daily flights?

This code is copied from the book and needed for the exercises.

library("nycflights13")
daily <- flights %>%
  mutate(date = make_date(year, month, day)) %>%
  group_by(date) %>%
  summarise(n = n())
#> `summarise()` ungrouping output (override with `.groups` argument)
daily
#> # A tibble: 365 x 2
#>   date           n
#>   <date>     <int>
#> 1 2013-01-01   842
#> 2 2013-01-02   943
#> 3 2013-01-03   914
#> 4 2013-01-04   915
#> 5 2013-01-05   720
#> 6 2013-01-06   832
#> # … with 359 more rows
…
