R for Data Science Solutions
…
A scatter plot is not a useful way to plot these variables, since both drv and class are factor variables taking a limited number of values.

count(mpg, drv, class)
#> # A tibble: 12 x 3
#>   drv   class          n
#>   <chr> <chr>      <int>
#> 1 4     compact       12
#> 2 4     midsize        3
#> 3 4     pickup        33
#> 4 4     subcompact     4
#> 5 4     suv           51
#> 6 f     compact       35
#> # ... with 6 more rows
…
Since colour = "blue" was included within the mapping argument, it was treated as an aesthetic (a mapping between a variable and a value). The expression, color="blue", treats "blue" as a variable with only one value: "blue". If this is confusing, consider how colour = 1:234 or colour = 1 would be interpreted by aes().

3.3.2 Exercise 2.

Which variables in mpg are categorical? Which variables are continuous? (Hint: type ?mpg to read the documentation for the dataset). How can you see this information when you run mpg?

?mpg

When printing the data frame, this information is given at the top of each column within angled brackets. Categorical variables have a class of “character” (<chr>).

mpg
#> # A tibble: 234 x 11
#>   manufacturer model displ  year   cyl trans drv     cty   hwy fl    class
#>   <chr>        <chr> <dbl> <int> <int> <chr> <chr> <int> <int> <chr> <chr>
#> 1 audi         a4     1.80  1999     4 auto… f        18    29 p     comp…
#> 2 audi         a4     1.80  1999     4 manu… f        21    29 p     comp…
#> 3 audi         a4     2.00  2008     4 manu… f        20    31 p     comp…
#> 4 audi         a4     2.00  2008     4 auto… f        21    30 p     comp…
#> 5 audi         a4     2.80  1999     6 auto… f        16    26 p     comp…
#> 6 audi         a4     2.80  1999     6 manu… f        18    26 p     comp…
#> # ... with 228 more rows
…
fliter(mpg, cyl = 8)
#> Error in fliter(mpg, cyl = 8): could not find function "fliter"

R could not find the function fliter because we made a typo: fliter instead of filter.

filter(mpg, cyl = 8)
#> Error: `cyl` (`cyl = 8`) must not be named, do you need `==`?

We aren’t done yet. But the error message gives a suggestion. Let’s follow it.

filter(mpg, cyl == 8)
#> # A tibble: 70 x 11
#>   manufacturer model displ  year   cyl trans drv     cty   hwy fl    class
#>   <chr>        <chr> <dbl> <int> <int> <chr> <chr> <int> <int> <chr> <chr>
#> 1 audi         a6 q…  4.20  2008     8 auto… 4        16    23 p     mids…
#> 2 chevrolet    c150…  5.30  2008     8 auto… r        14    20 r     suv  
#> 3 chevrolet    c150…  5.30  2008     8 auto… r        11    15 e     suv  
#> 4 chevrolet    c150…  5.30  2008     8 auto… r        14    20 r     suv  
#> 5 chevrolet    c150…  5.70  1999     8 auto… r        13    17 r     suv  
#> 6 chevrolet    c150…  6.00  2008     8 auto… r        12    17 r     suv  
#> # ... with 64 more rows

filter(diamond, carat > 3)
#> Error in filter(diamond, carat > 3): object 'diamond' not found

R says it can’t find the object diamond. This is a typo; the data frame is named diamonds.

filter(diamonds, carat > 3)
#> # A tibble: 32 x 10
#>   carat cut     color clarity depth table price     x     y     z
#>   <dbl> <ord>   <ord> <ord>   <dbl> <dbl> <int> <dbl> <dbl> <dbl>
#> 1  3.01 Premium I     I1       62.7  58.0  8040  9.10  8.97  5.67
#> 2  3.11 Fair    J     I1       65.9  57.0  9823  9.15  9.02  5.98
#> 3  3.01 Premium F     I1       62.2  56.0  9925  9.24  9.13  5.73
#> 4  3.05 Premium E     I1       60.9  58.0 10453  9.26  9.25  5.66
#> 5  3.02 Fair    I     I1       65.2  56.0 10577  9.11  9.02  5.91
#> 6  3.01 Fair    H     I1       56.1  62.0 10761  9.54  9.38  5.31
#> # ... with 26 more rows
…
Flew to Houston (IAH or HOU):

filter(flights, dest %in% c("IAH", "HOU"))
#> # A tibble: 9,313 x 19
#>    year month   day dep_time sched_dep_time dep_delay arr_time
#>   <int> <int> <int>    <int>          <int>     <dbl>    <int>
#> 1  2013     1     1      517            515      2.00      830
#> 2  2013     1     1      533            529      4.00      850
#> 3  2013     1     1      623            627     -4.00      933
#> 4  2013     1     1      728            732     -4.00     1041
#> 5  2013     1     1      739            739      0        1104
#> 6  2013     1     1      908            908      0        1228
#> # ... with 9,307 more rows, and 12 more variables: sched_arr_time <int>,
#> #   arr_delay <dbl>, carrier <chr>, flight <int>, tailnum <chr>,
#> #   origin <chr>, dest <chr>, air_time <dbl>, distance <dbl>, hour <dbl>,
#> #   minute <dbl>, time_hour <dttm>

Were operated by United, American, or Delta The variable carrier has the airline, but it is in two-digit carrier codes. However, we can look it up in the airlines dataset.

airlines
#> # A tibble: 16 x 2
#>   carrier name                    
#>   <chr>   <chr>                   
#> 1 9E      Endeavor Air Inc.       
#> 2 AA      American Airlines Inc.  
#> 3 AS      Alaska Airlines Inc.    
#> 4 B6      JetBlue Airways         
#> 5 DL      Delta Air Lines Inc.    
#> 6 EV      ExpressJet Airlines Inc.
#> # ... with 10 more rows
…
Arrived more than two hours late, but didn’t leave late

filter(flights, !is.na(dep_delay), dep_delay <= 0, arr_delay > 120)
#> # A tibble: 29 x 19
#>    year month   day dep_time sched_dep_time dep_delay arr_time
#>   <int> <int> <int>    <int>          <int>     <dbl>    <int>
#> 1  2013     1    27     1419           1420     -1.00     1754
#> 2  2013    10     7     1350           1350      0        1736
#> 3  2013    10     7     1357           1359     -2.00     1858
#> 4  2013    10    16      657            700     -3.00     1258
#> 5  2013    11     1      658            700     -2.00     1329
#> 6  2013     3    18     1844           1847     -3.00       39
#> # ... with 23 more rows, and 12 more variables: sched_arr_time <int>,
#> #   arr_delay <dbl>, carrier <chr>, flight <int>, tailnum <chr>,
#> #   origin <chr>, dest <chr>, air_time <dbl>, distance <dbl>, hour <dbl>,
#> #   minute <dbl>, time_hour <dttm>

Were delayed by at least an hour, but made up over 30 minutes in flight

filter(flights, !is.na(dep_delay), 
       dep_delay >= 60, dep_delay - arr_delay > 30)
#> # A tibble: 1,844 x 19
#>    year month   day dep_time sched_dep_time dep_delay arr_time
#>   <int> <int> <int>    <int>          <int>     <dbl>    <int>
#> 1  2013     1     1     2205           1720     285         46
#> 2  2013     1     1     2326           2130     116        131
#> 3  2013     1     3     1503           1221     162       1803
#> 4  2013     1     3     1839           1700      99.0     2056
#> 5  2013     1     3     1850           1745      65.0     2148
#> 6  2013     1     3     1941           1759     102       2246
#> # ... with 1,838 more rows, and 12 more variables: sched_arr_time <int>,
#> #   arr_delay <dbl>, carrier <chr>, flight <int>, tailnum <chr>,
#> #   origin <chr>, dest <chr>, air_time <dbl>, distance <dbl>, hour <dbl>,
#> #   minute <dbl>, time_hour <dttm>

Departed between midnight and 6am (inclusive).

filter(flights, dep_time <= 600 | dep_time == 2400)
#> # A tibble: 9,373 x 19
#>    year month   day dep_time sched_dep_time dep_delay arr_time
#>   <int> <int> <int>    <int>          <int>     <dbl>    <int>
#> 1  2013     1     1      517            515      2.00      830
#> 2  2013     1     1      533            529      4.00      850
#> 3  2013     1     1      542            540      2.00      923
#> 4  2013     1     1      544            545     -1.00     1004
#> 5  2013     1     1      554            600     -6.00      812
#> 6  2013     1     1      554            558     -4.00      740
#> # ... with 9,367 more rows, and 12 more variables: sched_arr_time <int>,
#> #   arr_delay <dbl>, carrier <chr>, flight <int>, tailnum <chr>,
#> #   origin <chr>, dest <chr>, air_time <dbl>, distance <dbl>, hour <dbl>,
#> #   minute <dbl>, time_hour <dttm>

5.2.2 Exercise 2

Another useful dplyr filtering helper is between(). What does it do? Can you use it to simplify the code needed to answer the previous challenges?

between(x, left, right) is equivalent to x >= left & x <= right.

5.2.3 Exercise 3

How many flights have a missing dep_time? What other variables are missing? What might these rows represent?

filter(flights, is.na(dep_time))
#> # A tibble: 8,255 x 19
#>    year month   day dep_time sched_dep_time dep_delay arr_time
#>   <int> <int> <int>    <int>          <int>     <dbl>    <int>
#> 1  2013     1     1       NA           1630        NA       NA
#> 2  2013     1     1       NA           1935        NA       NA
#> 3  2013     1     1       NA           1500        NA       NA
#> 4  2013     1     1       NA            600        NA       NA
#> 5  2013     1     2       NA           1540        NA       NA
#> 6  2013     1     2       NA           1620        NA       NA
#> # ... with 8,249 more rows, and 12 more variables: sched_arr_time <int>,
#> #   arr_delay <dbl>, carrier <chr>, flight <int>, tailnum <chr>,
#> #   origin <chr>, dest <chr>, air_time <dbl>, distance <dbl>, hour <dbl>,
#> #   minute <dbl>, time_hour <dttm>
…
Oops, I forgot to convert to minutes. I’ll reuse the time2mins function I wrote earlier.

mutate(flights,
       dep_delay2 = time2mins(dep_time) - time2mins(sched_dep_time)) %>%
  filter(dep_delay2 != dep_delay) %>%
  select(dep_time, sched_dep_time, dep_delay, dep_delay2)
#> # A tibble: 1,207 x 4
#>   dep_time sched_dep_time dep_delay dep_delay2
#>      <int>          <int>     <dbl>      <dbl>
#> 1      848           1835     853        - 587
#> 2       42           2359      43.0      -1397
#> 3      126           2250     156        -1284
#> 4       32           2359      33.0      -1407
#> 5       50           2145     185        -1255
#> 6      235           2359     156        -1284
#> # ... with 1,201 more rows

Well, that solved most of the problems, but these two numbers don’t match because we aren’t accounting for flights where the departure time is the next day from the scheduled departure time.

5.5.4 Exercise 4

Find the 10 most delayed flights using a ranking function. How do you want to handle ties? Carefully read the documentation for min_rank().

I’d want to handle ties by taking the minimum of tied values. If three flights are have the same value and are the most delayed, we would say they are tied for first, not tied for third or second.

mutate(flights,
       dep_delay_rank = min_rank(-dep_delay)) %>%
  arrange(dep_delay_rank) %>%
  filter(dep_delay_rank <= 10)
#> # A tibble: 10 x 20
#>    year month   day dep_time sched_dep_time dep_delay arr_time
#>   <int> <int> <int>    <int>          <int>     <dbl>    <int>
#> 1  2013     1     9      641            900      1301     1242
#> 2  2013     6    15     1432           1935      1137     1607
#> 3  2013     1    10     1121           1635      1126     1239
#> 4  2013     9    20     1139           1845      1014     1457
#> 5  2013     7    22      845           1600      1005     1044
#> 6  2013     4    10     1100           1900       960     1342
#> # ... with 4 more rows, and 13 more variables: sched_arr_time <int>,
#> #   arr_delay <dbl>, carrier <chr>, flight <int>, tailnum <chr>,
#> #   origin <chr>, dest <chr>, air_time <dbl>, distance <dbl>, hour <dbl>,
#> #   minute <dbl>, time_hour <dttm>, dep_delay_rank <int>
…
What trigonometric functions does R provide?

These are all described in the same help page,

help("Trig")

Cosine (cos), sine (sin), tangent (tan) are provided:

tibble(
  x = seq(-3, 7, by = 1 / 2),
  cosx = cos(pi * x),
  sinx = cos(pi * x),
  tanx = tan(pi * x)
)
#> # A tibble: 21 x 4
#>        x                   cosx                   sinx                tanx
#>    <dbl>                  <dbl>                  <dbl>               <dbl>
#> 1 -3.00  -1.00                  -1.00                             3.67e⁻¹⁶
#> 2 -2.50   0.000000000000000306   0.000000000000000306            -3.27e⁺¹⁵
#> 3 -2.00   1.00                   1.00                             2.45e⁻¹⁶
#> 4 -1.50  -0.000000000000000184  -0.000000000000000184            -5.44e⁺¹⁵
#> 5 -1.00  -1.00                  -1.00                             1.22e⁻¹⁶
#> 6 -0.500  0.0000000000000000612  0.0000000000000000612           -1.63e⁺¹⁶
#> # ... with 15 more rows

The convenience function cospi(x) is equivalent to cos(pi * x), with sinpi and tanpi similarly defined,

tibble(
  x = seq(-3, 7, by = 1 / 2),
  cosx = cospi(x),
  sinx = cos(x),
  tanx = tan(x)
)
#> # A tibble: 21 x 4
#>        x  cosx    sinx    tanx
#>    <dbl> <dbl>   <dbl>   <dbl>
#> 1 -3.00  -1.00 -0.990    0.143
#> 2 -2.50   0    -0.801    0.747
#> 3 -2.00   1.00 -0.416    2.19 
#> 4 -1.50   0     0.0707 -14.1  
#> 5 -1.00  -1.00  0.540  - 1.56 
#> 6 -0.500  0     0.878  - 0.546
#> # ... with 15 more rows

The inverse function arc-cosine (acos), arc-sine (asin), and arc-tangent (atan) are provided,

tibble(
  x = seq(-1, 1, by = 1 / 4),
  acosx = acos(x),
  asinx = asin(x),
  atanx = atan(x)
)
#> # A tibble: 9 x 4
#>        x acosx  asinx  atanx
#>    <dbl> <dbl>  <dbl>  <dbl>
#> 1 -1.00   3.14 -1.57  -0.785
#> 2 -0.750  2.42 -0.848 -0.644
#> 3 -0.500  2.09 -0.524 -0.464
#> 4 -0.250  1.82 -0.253 -0.245
#> 5  0      1.57  0      0    
#> 6  0.250  1.32  0.253  0.245
#> # ... with 3 more rows
…
5.6.2 Exercise 2

Come up with another approach that will give you the same output as not_cancelled %>% count(dest) and not_cancelled %>% count(tailnum, wt = distance) (without using count()).

The data frame not_cancelled is defined in the chapter as,

not_cancelled <- flights %>%
  filter(!is.na(dep_delay), !is.na(arr_delay))

Count will group a dataset on the given variable and then determine the number of instances within each group. This can be done by by first grouping by the given variable, and then finding the number of observations in each group. The number of observations in each group can be found by calling the length() function on any variable. To make the result match count(), the value should go in a new column n.

not_cancelled %>%
  group_by(dest) %>%
  summarise(n = length(dest))
#> # A tibble: 104 x 2
#>   dest      n
#>   <chr> <int>
#> 1 ABQ     254
#> 2 ACK     264
#> 3 ALB     418
#> 4 ANC       8
#> 5 ATL   16837
#> 6 AUS    2411
#> # ... with 98 more rows

A more concise way to get the number of observations in a data frame, or a group, is the function n(),

not_cancelled %>%
  group_by(dest) %>%
  summarise(n = n())
#> # A tibble: 104 x 2
#>   dest      n
#>   <chr> <int>
#> 1 ABQ     254
#> 2 ACK     264
#> 3 ALB     418
#> 4 ANC       8
#> 5 ATL   16837
#> 6 AUS    2411
#> # ... with 98 more rows

For a weighted count, take the sum of the weight variable in each group.

not_cancelled %>%
  group_by(tailnum) %>%
  summarise(n = sum(distance))
#> # A tibble: 4,037 x 2
#>   tailnum      n
#>   <chr>    <dbl>
#> 1 D942DN    3418
#> 2 N0EGMQ  239143
#> 3 N10156  109664
#> 4 N102UW   25722
#> 5 N103US   24619
#> 6 N104UW   24616
#> # ... with 4,031 more rows

Alternatively, we could have used group_by followed by tally(), since count() itself is a shortcut for calling group_by() then tally(),

not_cancelled %>%
  group_by(tailnum) %>%
  tally()
#> # A tibble: 4,037 x 2
#>   tailnum     n
#>   <chr>   <int>
#> 1 D942DN      4
#> 2 N0EGMQ    352
#> 3 N10156    145
#> 4 N102UW     48
#> 5 N103US     46
#> 6 N104UW     46
#> # ... with 4,031 more rows

and

not_cancelled %>%
  group_by(tailnum) %>%
  tally(distance)
#> # A tibble: 4,037 x 2
#>   tailnum      n
#>   <chr>    <dbl>
#> 1 D942DN    3418
#> 2 N0EGMQ  239143
#> 3 N10156  109664
#> 4 N102UW   25722
#> 5 N103US   24619
#> 6 N104UW   24616
#> # ... with 4,031 more rows

5.6.3 Exercise 3

Our definition of canceled flights (is.na(dep_delay) | is.na(arr_delay)) is slightly suboptimal. Why? Which is the most important column?

If a flight never departs, then it won’t arrive. A flight could also depart and not arrive if it crashes, or if it is redirected and lands in an airport other than its intended destination.

The more important column is arr_delay, which indicates the amount of delay in arrival.

filter(flights, !is.na(dep_delay), is.na(arr_delay)) %>%
  select(dep_time, arr_time, sched_arr_time, dep_delay, arr_delay)
#> # A tibble: 1,175 x 5
#>   dep_time arr_time sched_arr_time dep_delay arr_delay
#>      <int>    <int>          <int>     <dbl>     <dbl>
#> 1     1525     1934           1805    - 5.00        NA
#> 2     1528     2002           1647     29.0         NA
#> 3     1740     2158           2020    - 5.00        NA
#> 4     1807     2251           2103     29.0         NA
#> 5     1939       29           2151     59.0         NA
#> 6     1952     2358           2207     22.0         NA
#> # ... with 1,169 more rows
…
5.6.5 Exercise 5

Which carrier has the worst delays? Challenge: can you disentangle the effects of bad airports vs. bad carriers? Why/why not? (Hint: think about flights %>% group_by(carrier, dest) %>% summarise(n()))

flights %>%
  group_by(carrier) %>%
  summarise(arr_delay = mean(arr_delay, na.rm = TRUE)) %>%
  arrange(desc(arr_delay))
#> # A tibble: 16 x 2
#>   carrier arr_delay
#>   <chr>       <dbl>
#> 1 F9           21.9
#> 2 FL           20.1
#> 3 EV           15.8
#> 4 YV           15.6
#> 5 OO           11.9
#> 6 MQ           10.8
#> # ... with 10 more rows
…
5.6.6 Exercise 6

For each plane, count the number of flights before the first delay of greater than 1 hour.

I think this requires grouped mutate (but I may be wrong):

flights %>%
  arrange(tailnum, year, month, day) %>%
  group_by(tailnum) %>%
  mutate(delay_gt1hr = dep_delay > 60) %>%
  mutate(before_delay = cumsum(delay_gt1hr)) %>%
  filter(before_delay < 1) %>%
  count(sort = TRUE)
#> # A tibble: 3,755 x 2
#> # Groups:   tailnum [3,755]
#>   tailnum     n
#>   <chr>   <int>
#> 1 N954UW    206
#> 2 N952UW    163
#> 3 N957UW    142
#> 4 N5FAAA    117
#> 5 N38727     99
#> 6 N3742C     98
#> # ... with 3,749 more rows
…
5.7.3 Exercise 3

What time of day should you fly if you want to avoid delays as much as possible?

Let’s group by hour. The earlier the better to fly. This is intuitive as delays early in the morning are likely to propagate throughout the day.

flights %>%
  group_by(hour) %>%
  summarise(arr_delay = mean(arr_delay, na.rm = TRUE)) %>%
  arrange(arr_delay)
#> # A tibble: 20 x 2
#>    hour arr_delay
#>   <dbl>     <dbl>
#> 1  7.00    -5.30 
#> 2  5.00    -4.80 
#> 3  6.00    -3.38 
#> 4  9.00    -1.45 
#> 5  8.00    -1.11 
#> 6 10.0      0.954
#> # ... with 14 more rows
…
