…
```r
airport_locations <- airports %>%
  select(faa, lat, lon)

flights %>%
  select(year:day, hour, origin, dest) %>%
  left_join(
    airport_locations,
    by = c("origin" = "faa")
  ) %>%
  left_join(
    airport_locations,
    by = c("dest" = "faa")
  )
#> # A tibble: 336,776 x 10
#>    year month   day  hour origin dest  lat.x lon.x lat.y lon.y
#>   <int> <int> <int> <dbl> <chr>  <chr> <dbl> <dbl> <dbl> <dbl>
#> 1  2013     1     1     5 EWR    IAH    40.7 -74.2  30.0 -95.3
#> 2  2013     1     1     5 LGA    IAH    40.8 -73.9  30.0 -95.3
#> 3  2013     1     1     5 JFK    MIA    40.6 -73.8  25.8 -80.3
#> 4  2013     1     1     5 JFK    BQN    40.6 -73.8  NA    NA  
#> 5  2013     1     1     6 LGA    ATL    40.8 -73.9  33.6 -84.4
#> 6  2013     1     1     5 EWR    ORD    40.7 -74.2  42.0 -87.9
#> # … with 336,770 more rows
```
…
flights %>%
  select(year:day, hour, origin, dest) %>%
  left_join(
    airport_locations,
    by = c("origin" = "faa")
  ) %>%
  left_join(
    airport_locations,
    by = c("dest" = "faa"),
    suffix = c("_origin", "_dest")
    # existing lat and lon variables in tibble gain the _origin suffix
    # new lat and lon variables are given _dest suffix
  )
#> # A tibble: 336,776 x 10
#>    year month   day  hour origin dest  lat_origin lon_origin lat_dest lon_dest
#>   <int> <int> <int> <dbl> <chr>  <chr>      <dbl>      <dbl>    <dbl>    <dbl>
#> 1  2013     1     1     5 EWR    IAH         40.7      -74.2     30.0    -95.3
#> 2  2013     1     1     5 LGA    IAH         40.8      -73.9     30.0    -95.3
#> 3  2013     1     1     5 JFK    MIA         40.6      -73.8     25.8    -80.3
#> 4  2013     1     1     5 JFK    BQN         40.6      -73.8     NA       NA  
#> 5  2013     1     1     6 LGA    ATL         40.8      -73.9     33.6    -84.4
#> 6  2013     1     1     5 EWR    ORD         40.7      -74.2     42.0    -87.9
#> # … with 336,770 more rows
```
…
Many of the tail numbers that don't have a matching value in `planes` are 
registered to American Airlines (AA) or Envoy Airlines (MQ).
The documentation for `planes` states

> American Airways (AA) and Envoy Air (MQ) report fleet numbers rather than tail numbers so can't be matched.


```r
flights %>%
  anti_join(planes, by = "tailnum") %>%
  count(carrier, sort = TRUE) %>%
  mutate(p = n / sum(n))
#> # A tibble: 10 x 3
#>   carrier     n      p
#>   <chr>   <int>  <dbl>
#> 1 MQ      25397 0.483 
#> 2 AA      22558 0.429 
#> 3 UA       1693 0.0322
#> 4 9E       1044 0.0198
#> 5 B6        830 0.0158
#> 6 US        699 0.0133
#> # … with 4 more rows
```

However, not all tail numbers appearing in`flights` from these carriers are missing from the `planes` table. I don't know how to reconcile this discrepancy.


```r
flights %>%
  distinct(carrier, tailnum) %>%
  left_join(planes, by = "tailnum") %>%
  group_by(carrier) %>%
  summarise(total_planes = n(),
            not_in_planes = sum(is.na(model))) %>%
  mutate(missing_pct = not_in_planes / total_planes) %>%
  arrange(desc(missing_pct))
#> `summarise()` ungrouping output (override with `.groups` argument)
#> # A tibble: 16 x 4
#>   carrier total_planes not_in_planes missing_pct
#>   <chr>          <int>         <int>       <dbl>
#> 1 MQ               238           234      0.983 
#> 2 AA               601           430      0.715 
#> 3 F9                26             3      0.115 
#> 4 FL               129            12      0.0930
#> 5 UA               621            23      0.0370
#> 6 US               290             9      0.0310
#> # … with 10 more rows
```
…
```r
planes_gte100 <- flights %>%
  filter(!is.na(tailnum)) %>%
  group_by(tailnum) %>%
  count() %>%
  filter(n >= 100)
```

Now, I will semi join the data frame of planes that have flown at least 100 flights to the data frame of flights to select the flights by those planes.

```r
flights %>%
  semi_join(planes_gte100, by = "tailnum")
#> # A tibble: 228,390 x 19
#>    year month   day dep_time sched_dep_time dep_delay arr_time sched_arr_time
#>   <int> <int> <int>    <int>          <int>     <dbl>    <int>          <int>
#> 1  2013     1     1      517            515         2      830            819
#> 2  2013     1     1      533            529         4      850            830
#> 3  2013     1     1      544            545        -1     1004           1022
#> 4  2013     1     1      554            558        -4      740            728
#> 5  2013     1     1      555            600        -5      913            854
#> 6  2013     1     1      557            600        -3      709            723
#> # … with 228,384 more rows, and 11 more variables: arr_delay <dbl>,
#> #   carrier <chr>, flight <int>, tailnum <chr>, origin <chr>, dest <chr>,
#> #   air_time <dbl>, distance <dbl>, hour <dbl>, minute <dbl>, time_hour <dttm>
```

This can also be answered with a grouped mutate.

```r
flights %>%
  filter(!is.na(tailnum)) %>%
  group_by(tailnum) %>%
  mutate(n = n()) %>%
  filter(n >= 100)
#> # A tibble: 228,390 x 20
#> # Groups:   tailnum [1,217]
#>    year month   day dep_time sched_dep_time dep_delay arr_time sched_arr_time
#>   <int> <int> <int>    <int>          <int>     <dbl>    <int>          <int>
#> 1  2013     1     1      517            515         2      830            819
#> 2  2013     1     1      533            529         4      850            830
#> 3  2013     1     1      544            545        -1     1004           1022
#> 4  2013     1     1      554            558        -4      740            728
#> 5  2013     1     1      555            600        -5      913            854
#> 6  2013     1     1      557            600        -3      709            723
#> # … with 228,384 more rows, and 12 more variables: arr_delay <dbl>,
#> #   carrier <chr>, flight <int>, tailnum <chr>, origin <chr>, dest <chr>,
#> #   air_time <dbl>, distance <dbl>, hour <dbl>, minute <dbl>, time_hour <dttm>,
#> #   n <int>
```
…
### Exercise 13.5.3 {.unnumbered .exercise data-number="13.5.3"}

<div class="question">

Combine `fueleconomy::vehicles` and `fueleconomy::common` to find only the records for the most common models.

</div>

<div class="answer">


```r
fueleconomy::vehicles %>%
  semi_join(fueleconomy::common, by = c("make", "model"))
#> # A tibble: 14,531 x 12
#>      id make  model   year class   trans   drive     cyl displ fuel    hwy   cty
#>   <dbl> <chr> <chr>  <dbl> <chr>   <chr>   <chr>   <dbl> <dbl> <chr> <dbl> <dbl>
#> 1  1833 Acura Integ…  1986 Subcom… Automa… Front-…     4   1.6 Regu…    28    22
#> 2  1834 Acura Integ…  1986 Subcom… Manual… Front-…     4   1.6 Regu…    28    23
#> 3  3037 Acura Integ…  1987 Subcom… Automa… Front-…     4   1.6 Regu…    28    22
#> 4  3038 Acura Integ…  1987 Subcom… Manual… Front-…     4   1.6 Regu…    28    23
#> 5  4183 Acura Integ…  1988 Subcom… Automa… Front-…     4   1.6 Regu…    27    22
#> 6  4184 Acura Integ…  1988 Subcom… Manual… Front-…     4   1.6 Regu…    28    23
#> # … with 14,525 more rows
```

Why does the above code join on `make` and `model` and not just `model`?
It is possible for two car brands (`make`) to produce a car with the same name (`model`).
In both the `vehicles` and `common` data we can find some examples.
For example, "Truck 4WD" is produced by many different brands.

```r
fueleconomy::vehicles %>%
  distinct(model, make) %>%
  group_by(model) %>%
  filter(n() > 1) %>%
  arrange(model)
#> # A tibble: 126 x 2
#> # Groups:   model [60]
#>   make                   model              
#>   <chr>                  <chr>              
#> 1 Audi                   200                
#> 2 Chrysler               200                
#> 3 Mcevoy Motors          240 DL/240 GL Wagon
#> 4 Volvo                  240 DL/240 GL Wagon
#> 5 Lambda Control Systems 300E               
#> 6 Mercedes-Benz          300E               
#> # … with 120 more rows
```

```r
fueleconomy::common %>%
  distinct(model, make) %>%
  group_by(model) %>%
  filter(n() > 1) %>%
  arrange(model)
#> # A tibble: 8 x 2
#> # Groups:   model [3]
#>   make       model    
#>   <chr>      <chr>    
#> 1 Dodge      Colt     
#> 2 Plymouth   Colt     
#> 3 Mitsubishi Truck 2WD
#> 4 Nissan     Truck 2WD
#> 5 Toyota     Truck 2WD
#> 6 Mitsubishi Truck 4WD
#> # … with 2 more rows
```
…
In this set of four airports three are in Puerto Rico ([BQN](https://en.wikipedia.org/wiki/Rafael_Hern%C3%A1ndez_Airport), [SJU](https://en.wikipedia.org/wiki/Luis_Mu%C3%B1oz_Mar%C3%ADn_International_Airport), and [PSE](https://en.wikipedia.org/wiki/Mercedita_International_Airport)) and one is in the US Virgin Islands ( [STT](https://en.wikipedia.org/wiki/Cyril_E._King_Airport)).

The reason for this discrepancy is that the `flights` and `airports` tables are derived from different sources.
The `flights` data comes from the US Department of Transportation [Bureau of Transportation Statistics](https://www.transtats.bts.gov/DL_SelectFields.asp?Table_ID=236), while the airport metadata comes from [openflights.org](https://openflights.org/data.html).
The BTS includes Puerto Rico and U.S. Virgin Islands as "domestic" (part of the US), while the [openflights.org](https://raw.githubusercontent.com/jpatokal/openflights/master/data/airports.dat) give use different values of country for airports in the US states (`"United States"`)  Puerto Rico (`"Puerto Rico"`) and US Virgin Islands (`"Virgin Islands"`).

The expression `anti_join(airports, flights, by = c("faa" = "dest"))` returns the US airports that were not the destination of any flight in the data.
Since the data contains all flights from New York City airports, this is also the list of US airports that did not have a nonstop flight from New York City in 2013.


```r
anti_join(airports, flights, by = c("faa" = "dest"))
#> # A tibble: 1,357 x 8
#>   faa   name                          lat   lon   alt    tz dst   tzone         
#>   <chr> <chr>                       <dbl> <dbl> <dbl> <dbl> <chr> <chr>         
#> 1 04G   Lansdowne Airport            41.1 -80.6  1044    -5 A     America/New_Y…
#> 2 06A   Moton Field Municipal Airp…  32.5 -85.7   264    -6 A     America/Chica…
#> 3 06C   Schaumburg Regional          42.0 -88.1   801    -6 A     America/Chica…
#> 4 06N   Randall Airport              41.4 -74.4   523    -5 A     America/New_Y…
#> 5 09J   Jekyll Island Airport        31.1 -81.4    11    -5 A     America/New_Y…
#> 6 0A9   Elizabethton Municipal Air…  36.4 -82.2  1593    -5 A     America/New_Y…
#> # … with 1,351 more rows
```
…
The names of airlines are easier to understand than the two-letter carrier codes.
The `airlines` data frame contains the names of the airlines.


```r
carrier_transfer_tbl <- planes_carriers %>%
  # keep only planes which have flown for more than one airline
  group_by(tailnum) %>%
  filter(n() > 1) %>%
  # join with airlines to get airline names
  left_join(airlines, by = "carrier") %>%
  arrange(tailnum, carrier)

carrier_transfer_tbl
#> # A tibble: 34 x 3
#> # Groups:   tailnum [17]
#>   carrier tailnum name                    
#>   <chr>   <chr>   <chr>                   
#> 1 9E      N146PQ  Endeavor Air Inc.       
#> 2 EV      N146PQ  ExpressJet Airlines Inc.
#> 3 9E      N153PQ  Endeavor Air Inc.       
#> 4 EV      N153PQ  ExpressJet Airlines Inc.
#> 5 9E      N176PQ  Endeavor Air Inc.       
#> 6 EV      N176PQ  ExpressJet Airlines Inc.
#> # … with 28 more rows
```
…
