10 Tibbles | R for Data Science: Exercise Solutions
…
But when we first convert mtcars to a tibble using as_tibble(), it prints only the first ten observations.
There are also some other differences in formatting of the printed data frame.
It prints the number of rows and columns and the date type of each column.

as_tibble(mtcars)
#> # A tibble: 32 x 11
#>     mpg   cyl  disp    hp  drat    wt  qsec    vs    am  gear  carb
#>   <dbl> <dbl> <dbl> <dbl> <dbl> <dbl> <dbl> <dbl> <dbl> <dbl> <dbl>
#> 1  21       6   160   110  3.9   2.62  16.5     0     1     4     4
#> 2  21       6   160   110  3.9   2.88  17.0     0     1     4     4
#> 3  22.8     4   108    93  3.85  2.32  18.6     1     1     4     1
#> 4  21.4     6   258   110  3.08  3.22  19.4     1     0     3     1
#> 5  18.7     8   360   175  3.15  3.44  17.0     0     0     3     2
#> 6  18.1     6   225   105  2.76  3.46  20.2     1     0     3     1
#> # … with 26 more rows
…
To add a new column 3 which is 2 divided by 1:

mutate(annoying, `3` = `2` / `1`)
#> # A tibble: 10 x 3
#>     `1`    `2`   `3`
#>   <int>  <dbl> <dbl>
#> 1     1  0.600 0.600
#> 2     2  4.26  2.13 
#> 3     3  3.56  1.19 
#> 4     4  7.99  2.00 
#> 5     5 10.6   2.12 
#> 6     6 13.1   2.19 
#> # … with 4 more rows
…
