12 Tidy data | R for Data Science: Exercise Solutions
…
In table2, each row represents a (country, year, variable) combination.
The column count contains the values of variables cases and population in separate rows.

table2
#> # A tibble: 12 x 4
#>   country      year type           count
#>   <chr>       <int> <chr>          <int>
#> 1 Afghanistan  1999 cases            745
#> 2 Afghanistan  1999 population  19987071
#> 3 Afghanistan  2000 cases           2666
#> 4 Afghanistan  2000 population  20595360
#> 5 Brazil       1999 cases          37737
#> 6 Brazil       1999 population 172006362
#> # … with 6 more rows
…
To store this new variable in the appropriate location, we will add new rows to table2.

t2_cases_per_cap <- t2_cases_per_cap %>%
  mutate(type = "cases_per_cap") %>%
  rename(count = cases_per_cap)

bind_rows(table2, t2_cases_per_cap) %>%
  arrange(country, year, type, count)
#> # A tibble: 18 x 4
#>   country      year type                 count
#>   <chr>       <int> <chr>                <dbl>
#> 1 Afghanistan  1999 cases              745    
#> 2 Afghanistan  1999 cases_per_cap        0.373
#> 3 Afghanistan  1999 population    19987071    
#> 4 Afghanistan  2000 cases             2666    
#> 5 Afghanistan  2000 cases_per_cap        1.29 
#> 6 Afghanistan  2000 population    20595360    
#> # … with 12 more rows
…
For example, this will fill in the missing values of the long data frame with 0 complete():

stocks %>% 
 complete(year, qtr, fill=list(return=0))
#> # A tibble: 8 x 3
#>    year   qtr return
#>   <dbl> <dbl>  <dbl>
#> 1  2015     1   1.88
#> 2  2015     2   0.59
#> 3  2015     3   0.35
#> 4  2015     4   0   
#> 5  2016     1   0   
#> 6  2016     2   0.92
#> # … with 2 more rows
…
With fill, the direction determines whether NA values should be replaced by the previous non-missing value ("down") or the next non-missing value ("up").

12.6 Case Study

This code is repeated from the chapter because it is needed by the exercises.

who1 <- who %>% 
  pivot_longer(
    cols = new_sp_m014:newrel_f65, 
    names_to = "key", 
    values_to = "cases", 
    values_drop_na = TRUE
  )
who1
#> # A tibble: 76,046 x 6
#>   country     iso2  iso3   year key          cases
#>   <chr>       <chr> <chr> <int> <chr>        <int>
#> 1 Afghanistan AF    AFG    1997 new_sp_m014      0
#> 2 Afghanistan AF    AFG    1997 new_sp_m1524    10
#> 3 Afghanistan AF    AFG    1997 new_sp_m2534     6
#> 4 Afghanistan AF    AFG    1997 new_sp_m3544     3
#> 5 Afghanistan AF    AFG    1997 new_sp_m4554     5
#> 6 Afghanistan AF    AFG    1997 new_sp_m5564     2
#> # … with 76,040 more rows

who2 <- who1 %>% 
  mutate(names_from = stringr::str_replace(key, "newrel", "new_rel"))
who2
#> # A tibble: 76,046 x 7
#>   country     iso2  iso3   year key          cases names_from  
#>   <chr>       <chr> <chr> <int> <chr>        <int> <chr>       
#> 1 Afghanistan AF    AFG    1997 new_sp_m014      0 new_sp_m014 
#> 2 Afghanistan AF    AFG    1997 new_sp_m1524    10 new_sp_m1524
#> 3 Afghanistan AF    AFG    1997 new_sp_m2534     6 new_sp_m2534
#> 4 Afghanistan AF    AFG    1997 new_sp_m3544     3 new_sp_m3544
#> 5 Afghanistan AF    AFG    1997 new_sp_m4554     5 new_sp_m4554
#> 6 Afghanistan AF    AFG    1997 new_sp_m5564     2 new_sp_m5564
#> # … with 76,040 more rows

who3 <- who2 %>% 
  separate(key, c("new", "type", "sexage"), sep = "_")
#> Warning: Expected 3 pieces. Missing pieces filled with `NA` in 2580 rows [243,
#> 244, 679, 680, 681, 682, 683, 684, 685, 686, 687, 688, 689, 690, 691, 692, 903,
#> 904, 905, 906, ...].
who3
#> # A tibble: 76,046 x 9
#>   country     iso2  iso3   year new   type  sexage cases names_from  
#>   <chr>       <chr> <chr> <int> <chr> <chr> <chr>  <int> <chr>       
#> 1 Afghanistan AF    AFG    1997 new   sp    m014       0 new_sp_m014 
#> 2 Afghanistan AF    AFG    1997 new   sp    m1524     10 new_sp_m1524
#> 3 Afghanistan AF    AFG    1997 new   sp    m2534      6 new_sp_m2534
#> 4 Afghanistan AF    AFG    1997 new   sp    m3544      3 new_sp_m3544
#> 5 Afghanistan AF    AFG    1997 new   sp    m4554      5 new_sp_m4554
#> 6 Afghanistan AF    AFG    1997 new   sp    m5564      2 new_sp_m5564
#> # … with 76,040 more rows
who3 %>%
  count(new)
#> # A tibble: 2 x 2
#>   new        n
#>   <chr>  <int>
#> 1 new    73466
#> 2 newrel  2580

who4 <- who3 %>%
  select(-new, -iso2, -iso3)

who5 <- who4 %>%
  separate(sexage, c("sex", "age"), sep = 1)
who5
#> # A tibble: 76,046 x 7
#>   country      year type  sex   age   cases names_from  
#>   <chr>       <int> <chr> <chr> <chr> <int> <chr>       
#> 1 Afghanistan  1997 sp    m     014       0 new_sp_m014 
#> 2 Afghanistan  1997 sp    m     1524     10 new_sp_m1524
#> 3 Afghanistan  1997 sp    m     2534      6 new_sp_m2534
#> 4 Afghanistan  1997 sp    m     3544      3 new_sp_m3544
#> 5 Afghanistan  1997 sp    m     4554      5 new_sp_m4554
#> 6 Afghanistan  1997 sp    m     5564      2 new_sp_m5564
#> # … with 76,040 more rows
…
who1 %>%
  filter(cases == 0) %>%
  nrow()
#> [1] 11080

There are zeros in the data, so it appears that cases of zero TB are explicitly indicated, and the value ofNA is used to indicate missing data.

Second, I should check whether all values for a (country, year) are missing or whether it is possible for only some columns to be missing.

pivot_longer(who, c(new_sp_m014:newrel_f65), names_to = "key", values_to = "cases") %>%
  group_by(country, year) %>%
  mutate(prop_missing = sum(is.na(cases)) / n()) %>%
  filter(prop_missing > 0, prop_missing < 1)
#> # A tibble: 195,104 x 7
#> # Groups:   country, year [3,484]
#>   country     iso2  iso3   year key          cases prop_missing
#>   <chr>       <chr> <chr> <int> <chr>        <int>        <dbl>
#> 1 Afghanistan AF    AFG    1997 new_sp_m014      0         0.75
#> 2 Afghanistan AF    AFG    1997 new_sp_m1524    10         0.75
#> 3 Afghanistan AF    AFG    1997 new_sp_m2534     6         0.75
#> 4 Afghanistan AF    AFG    1997 new_sp_m3544     3         0.75
#> 5 Afghanistan AF    AFG    1997 new_sp_m4554     5         0.75
#> 6 Afghanistan AF    AFG    1997 new_sp_m5564     2         0.75
#> # … with 195,098 more rows
…
Since the number of complete cases of (country, year) is greater than the number of rows in who, there are some implicit values.
But that doesn’t tell us what those implicit missing values are.
To do this, I will use the anti_join() function introduced in the later Relational Data chapter.

anti_join(complete(who, country, year), who, by = c("country", "year")) %>% 
  select(country, year) %>% 
  group_by(country) %>% 
  # so I can make better sense of the years
  summarise(min_year = min(year), max_year = max(year))
#> `summarise()` ungrouping output (override with `.groups` argument)
#> # A tibble: 9 x 3
#>   country                           min_year max_year
#>   <chr>                                <int>    <int>
#> 1 Bonaire, Saint Eustatius and Saba     1980     2009
#> 2 Curacao                               1980     2009
#> 3 Montenegro                            1980     2004
#> 4 Netherlands Antilles                  2010     2013
#> 5 Serbia                                1980     2004
#> 6 Serbia & Montenegro                   2005     2013
#> # … with 3 more rows
…
