…
</div>

<div class="answer">

The answer to each part follows.

1.  Since the `arr_delay` variable is measured in minutes, find
    flights with an arrival delay of 120 or more minutes.

    
    ```r
    filter(flights, arr_delay >= 120)
    #> # A tibble: 10,200 x 19
    #>    year month   day dep_time sched_dep_time dep_delay arr_time sched_arr_time
    #>   <int> <int> <int>    <int>          <int>     <dbl>    <int>          <int>
    #> 1  2013     1     1      811            630       101     1047            830
    #> 2  2013     1     1      848           1835       853     1001           1950
    #> 3  2013     1     1      957            733       144     1056            853
    #> 4  2013     1     1     1114            900       134     1447           1222
    #> 5  2013     1     1     1505           1310       115     1638           1431
    #> 6  2013     1     1     1525           1340       105     1831           1626
    #> # … with 10,194 more rows, and 11 more variables: arr_delay <dbl>,
    #> #   carrier <chr>, flight <int>, tailnum <chr>, origin <chr>, dest <chr>,
    #> #   air_time <dbl>, distance <dbl>, hour <dbl>, minute <dbl>, time_hour <dttm>
    ```

1.  The flights that flew to Houston are those flights where the 
    destination (`dest`) is either "IAH" or "HOU".
    
    ```r
    filter(flights, dest == "IAH" | dest == "HOU")
    #> # A tibble: 9,313 x 19
    #>    year month   day dep_time sched_dep_time dep_delay arr_time sched_arr_time
    #>   <int> <int> <int>    <int>          <int>     <dbl>    <int>          <int>
    #> 1  2013     1     1      517            515         2      830            819
    #> 2  2013     1     1      533            529         4      850            830
    #> 3  2013     1     1      623            627        -4      933            932
    #> 4  2013     1     1      728            732        -4     1041           1038
    #> 5  2013     1     1      739            739         0     1104           1038
    #> 6  2013     1     1      908            908         0     1228           1219
    #> # … with 9,307 more rows, and 11 more variables: arr_delay <dbl>,
    #> #   carrier <chr>, flight <int>, tailnum <chr>, origin <chr>, dest <chr>,
    #> #   air_time <dbl>, distance <dbl>, hour <dbl>, minute <dbl>, time_hour <dttm>
    ```
    However, using `%in%` is more compact and would scale to cases where 
    there were more than two airports we were interested in.
    
    ```r
    filter(flights, dest %in% c("IAH", "HOU"))
    #> # A tibble: 9,313 x 19
    #>    year month   day dep_time sched_dep_time dep_delay arr_time sched_arr_time
    #>   <int> <int> <int>    <int>          <int>     <dbl>    <int>          <int>
    #> 1  2013     1     1      517            515         2      830            819
    #> 2  2013     1     1      533            529         4      850            830
    #> 3  2013     1     1      623            627        -4      933            932
    #> 4  2013     1     1      728            732        -4     1041           1038
    #> 5  2013     1     1      739            739         0     1104           1038
    #> 6  2013     1     1      908            908         0     1228           1219
    #> # … with 9,307 more rows, and 11 more variables: arr_delay <dbl>,
    #> #   carrier <chr>, flight <int>, tailnum <chr>, origin <chr>, dest <chr>,
    #> #   air_time <dbl>, distance <dbl>, hour <dbl>, minute <dbl>, time_hour <dttm>
    ```
    

1.  In the `flights` dataset, the column `carrier` indicates the airline, but it uses two-character carrier codes.
    We can find the carrier codes for the airlines in the `airlines` dataset.
    Since the carrier code dataset only has 16 rows, and the names
    of the airlines in that dataset are not exactly "United", "American", or "Delta",
    it is easiest to manually look up their carrier codes in that data.

    
    ```r
    airlines
    #> # A tibble: 16 x 2
    #>   carrier name                    
    #>   <chr>   <chr>                   
    #> 1 9E      Endeavor Air Inc.       
    #> 2 AA      American Airlines Inc.  
    #> 3 AS      Alaska Airlines Inc.    
    #> 4 B6      JetBlue Airways         
    #> 5 DL      Delta Air Lines Inc.    
    #> 6 EV      ExpressJet Airlines Inc.
    #> # … with 10 more rows
    ```

    The carrier code for Delta is `"DL"`, for American is `"AA"`, and for United is `"UA"`.
    Using these carriers codes, we check whether `carrier` is one of those.

    
    ```r
    filter(flights, carrier %in% c("AA", "DL", "UA"))
    #> # A tibble: 139,504 x 19
    #>    year month   day dep_time sched_dep_time dep_delay arr_time sched_arr_time
    #>   <int> <int> <int>    <int>          <int>     <dbl>    <int>          <int>
    #> 1  2013     1     1      517            515         2      830            819
    #> 2  2013     1     1      533            529         4      850            830
    #> 3  2013     1     1      542            540         2      923            850
    #> 4  2013     1     1      554            600        -6      812            837
    #> 5  2013     1     1      554            558        -4      740            728
    #> 6  2013     1     1      558            600        -2      753            745
    #> # … with 139,498 more rows, and 11 more variables: arr_delay <dbl>,
    #> #   carrier <chr>, flight <int>, tailnum <chr>, origin <chr>, dest <chr>,
    #> #   air_time <dbl>, distance <dbl>, hour <dbl>, minute <dbl>, time_hour <dttm>
    ```

1.  The variable `month` has the month, and it is numeric.
    So, the summer flights are those that departed in months 7 (July), 8 (August), and 9 (September).
    
    ```r
    filter(flights, month >= 7, month <= 9)
    #> # A tibble: 86,326 x 19
    #>    year month   day dep_time sched_dep_time dep_delay arr_time sched_arr_time
    #>   <int> <int> <int>    <int>          <int>     <dbl>    <int>          <int>
    #> 1  2013     7     1        1           2029       212      236           2359
    #> 2  2013     7     1        2           2359         3      344            344
    #> 3  2013     7     1       29           2245       104      151              1
    #> 4  2013     7     1       43           2130       193      322             14
    #> 5  2013     7     1       44           2150       174      300            100
    #> 6  2013     7     1       46           2051       235      304           2358
    #> # … with 86,320 more rows, and 11 more variables: arr_delay <dbl>,
    #> #   carrier <chr>, flight <int>, tailnum <chr>, origin <chr>, dest <chr>,
    #> #   air_time <dbl>, distance <dbl>, hour <dbl>, minute <dbl>, time_hour <dttm>
    ```
    The `%in%` operator is an alternative. If the `:` operator is used to specify
    the integer range, the expression is readable and compact.
    
    ```r
    filter(flights, month %in% 7:9)
    #> # A tibble: 86,326 x 19
    #>    year month   day dep_time sched_dep_time dep_delay arr_time sched_arr_time
    #>   <int> <int> <int>    <int>          <int>     <dbl>    <int>          <int>
    #> 1  2013     7     1        1           2029       212      236           2359
    #> 2  2013     7     1        2           2359         3      344            344
    #> 3  2013     7     1       29           2245       104      151              1
    #> 4  2013     7     1       43           2130       193      322             14
    #> 5  2013     7     1       44           2150       174      300            100
    #> 6  2013     7     1       46           2051       235      304           2358
    #> # … with 86,320 more rows, and 11 more variables: arr_delay <dbl>,
    #> #   carrier <chr>, flight <int>, tailnum <chr>, origin <chr>, dest <chr>,
    #> #   air_time <dbl>, distance <dbl>, hour <dbl>, minute <dbl>, time_hour <dttm>
    ```
    We could also use the `|` operator. However, the `|` does not scale to 
    many choices. 
    Even with only three choices, it is quite verbose.
    
    ```r
    filter(flights, month == 7 | month == 8 | month == 9)
    #> # A tibble: 86,326 x 19
    #>    year month   day dep_time sched_dep_time dep_delay arr_time sched_arr_time
    #>   <int> <int> <int>    <int>          <int>     <dbl>    <int>          <int>
    #> 1  2013     7     1        1           2029       212      236           2359
    #> 2  2013     7     1        2           2359         3      344            344
    #> 3  2013     7     1       29           2245       104      151              1
    #> 4  2013     7     1       43           2130       193      322             14
    #> 5  2013     7     1       44           2150       174      300            100
    #> 6  2013     7     1       46           2051       235      304           2358
    #> # … with 86,320 more rows, and 11 more variables: arr_delay <dbl>,
    #> #   carrier <chr>, flight <int>, tailnum <chr>, origin <chr>, dest <chr>,
    #> #   air_time <dbl>, distance <dbl>, hour <dbl>, minute <dbl>, time_hour <dttm>
    ```
    We can also use the `between()` function as shown in [Exercise 5.2.2](#exercise-5.2.2).

1.  Flights that arrived more than two hours late, but didn’t leave late will 
    have an arrival delay of more than 120 minutes (`arr_delay > 120`) and 
    a non-positive departure delay (`dep_delay <= 0`).
    
    ```r
    filter(flights, arr_delay > 120, dep_delay <= 0)
    #> # A tibble: 29 x 19
    #>    year month   day dep_time sched_dep_time dep_delay arr_time sched_arr_time
    #>   <int> <int> <int>    <int>          <int>     <dbl>    <int>          <int>
    #> 1  2013     1    27     1419           1420        -1     1754           1550
    #> 2  2013    10     7     1350           1350         0     1736           1526
    #> 3  2013    10     7     1357           1359        -2     1858           1654
    #> 4  2013    10    16      657            700        -3     1258           1056
    #> 5  2013    11     1      658            700        -2     1329           1015
    #> 6  2013     3    18     1844           1847        -3       39           2219
    #> # … with 23 more rows, and 11 more variables: arr_delay <dbl>, carrier <chr>,
    #> #   flight <int>, tailnum <chr>, origin <chr>, dest <chr>, air_time <dbl>,
    #> #   distance <dbl>, hour <dbl>, minute <dbl>, time_hour <dttm>
    ```

1.  Were delayed by at least an hour, but made up over 30 minutes in flight.
    If a flight was delayed by at least an hour, then `dep_delay >= 60`. 
    If the flight didn't make up any time in the air, then its arrival would be delayed by the same amount as its departure, meaning `dep_delay == arr_delay`, or alternatively, `dep_delay - arr_delay == 0`. 
    If it makes up over 30 minutes in the air, then the arrival delay must be at least 30 minutes less than the departure delay, which is stated as `dep_delay - arr_delay > 30`.
    
    ```r
    filter(flights, dep_delay >= 60, dep_delay - arr_delay > 30)
    #> # A tibble: 1,844 x 19
    #>    year month   day dep_time sched_dep_time dep_delay arr_time sched_arr_time
    #>   <int> <int> <int>    <int>          <int>     <dbl>    <int>          <int>
    #> 1  2013     1     1     2205           1720       285       46           2040
    #> 2  2013     1     1     2326           2130       116      131             18
    #> 3  2013     1     3     1503           1221       162     1803           1555
    #> 4  2013     1     3     1839           1700        99     2056           1950
    #> 5  2013     1     3     1850           1745        65     2148           2120
    #> 6  2013     1     3     1941           1759       102     2246           2139
    #> # … with 1,838 more rows, and 11 more variables: arr_delay <dbl>,
    #> #   carrier <chr>, flight <int>, tailnum <chr>, origin <chr>, dest <chr>,
    #> #   air_time <dbl>, distance <dbl>, hour <dbl>, minute <dbl>, time_hour <dttm>
    ```
…
    ```r
    summary(flights$dep_time)
    #>    Min. 1st Qu.  Median    Mean 3rd Qu.    Max.    NA's 
    #>       1     907    1401    1349    1744    2400    8255
    ```
    This is an example of why it is always good to check the summary statistics of your data.
    Unfortunately, this means we cannot simply check that `dep_time < 600`, because we also have
    to consider the special case of midnight.
    
    
    ```r
    filter(flights, dep_time <= 600 | dep_time == 2400)
    #> # A tibble: 9,373 x 19
    #>    year month   day dep_time sched_dep_time dep_delay arr_time sched_arr_time
    #>   <int> <int> <int>    <int>          <int>     <dbl>    <int>          <int>
    #> 1  2013     1     1      517            515         2      830            819
    #> 2  2013     1     1      533            529         4      850            830
    #> 3  2013     1     1      542            540         2      923            850
    #> 4  2013     1     1      544            545        -1     1004           1022
    #> 5  2013     1     1      554            600        -6      812            837
    #> 6  2013     1     1      554            558        -4      740            728
    #> # … with 9,367 more rows, and 11 more variables: arr_delay <dbl>,
    #> #   carrier <chr>, flight <int>, tailnum <chr>, origin <chr>, dest <chr>,
    #> #   air_time <dbl>, distance <dbl>, hour <dbl>, minute <dbl>, time_hour <dttm>
    ```
…
    ```r
    c(600, 1200, 2400) %% 2400
    #> [1]  600 1200    0
    ```

    Since `2400 %% 2400 == 0` and all other times are left unchanged, 
    we can compare the result of the modulo operation to `600`,

    
    ```r
    filter(flights, dep_time %% 2400 <= 600)
    #> # A tibble: 9,373 x 19
    #>    year month   day dep_time sched_dep_time dep_delay arr_time sched_arr_time
    #>   <int> <int> <int>    <int>          <int>     <dbl>    <int>          <int>
    #> 1  2013     1     1      517            515         2      830            819
    #> 2  2013     1     1      533            529         4      850            830
    #> 3  2013     1     1      542            540         2      923            850
    #> 4  2013     1     1      544            545        -1     1004           1022
    #> 5  2013     1     1      554            600        -6      812            837
    #> 6  2013     1     1      554            558        -4      740            728
    #> # … with 9,367 more rows, and 11 more variables: arr_delay <dbl>,
    #> #   carrier <chr>, flight <int>, tailnum <chr>, origin <chr>, dest <chr>,
    #> #   air_time <dbl>, distance <dbl>, hour <dbl>, minute <dbl>, time_hour <dttm>
    ```
…
### Exercise 5.2.2 {.unnumbered .exercise data-number="5.2.2"}

<div class="question">
Another useful dplyr filtering helper is `between()`. What does it do? Can you use it to simplify the code needed to answer the previous challenges?
</div>

<div class="answer">

The expression `between(x, left, right)` is equivalent to `x >= left & x <= right`.

Of the answers in the previous question, we could simplify the statement of *departed in summer* (`month >= 7 & month <= 9`) using the `between()` function.

```r
filter(flights, between(month, 7, 9))
#> # A tibble: 86,326 x 19
#>    year month   day dep_time sched_dep_time dep_delay arr_time sched_arr_time
#>   <int> <int> <int>    <int>          <int>     <dbl>    <int>          <int>
#> 1  2013     7     1        1           2029       212      236           2359
#> 2  2013     7     1        2           2359         3      344            344
#> 3  2013     7     1       29           2245       104      151              1
#> 4  2013     7     1       43           2130       193      322             14
#> 5  2013     7     1       44           2150       174      300            100
#> 6  2013     7     1       46           2051       235      304           2358
#> # … with 86,320 more rows, and 11 more variables: arr_delay <dbl>,
#> #   carrier <chr>, flight <int>, tailnum <chr>, origin <chr>, dest <chr>,
#> #   air_time <dbl>, distance <dbl>, hour <dbl>, minute <dbl>, time_hour <dttm>
```
</div>

### Exercise 5.2.3 {.unnumbered .exercise data-number="5.2.3"}

<div class="question">
How many flights have a missing `dep_time`? What other variables are missing? What might these rows represent?
</div>

<div class="answer">

Find the rows of flights with a missing departure time (`dep_time`) using the `is.na()` function.

```r
filter(flights, is.na(dep_time))
#> # A tibble: 8,255 x 19
#>    year month   day dep_time sched_dep_time dep_delay arr_time sched_arr_time
#>   <int> <int> <int>    <int>          <int>     <dbl>    <int>          <int>
#> 1  2013     1     1       NA           1630        NA       NA           1815
#> 2  2013     1     1       NA           1935        NA       NA           2240
#> 3  2013     1     1       NA           1500        NA       NA           1825
#> 4  2013     1     1       NA            600        NA       NA            901
#> 5  2013     1     2       NA           1540        NA       NA           1747
#> 6  2013     1     2       NA           1620        NA       NA           1746
#> # … with 8,249 more rows, and 11 more variables: arr_delay <dbl>,
#> #   carrier <chr>, flight <int>, tailnum <chr>, origin <chr>, dest <chr>,
#> #   air_time <dbl>, distance <dbl>, hour <dbl>, minute <dbl>, time_hour <dttm>
```
…
```r
arrange(flights, desc(dep_time))
#> # A tibble: 336,776 x 19
#>    year month   day dep_time sched_dep_time dep_delay arr_time sched_arr_time
#>   <int> <int> <int>    <int>          <int>     <dbl>    <int>          <int>
#> 1  2013    10    30     2400           2359         1      327            337
#> 2  2013    11    27     2400           2359         1      515            445
#> 3  2013    12     5     2400           2359         1      427            440
#> 4  2013    12     9     2400           2359         1      432            440
#> 5  2013    12     9     2400           2250        70       59           2356
#> 6  2013    12    13     2400           2359         1      432            440
#> # … with 336,770 more rows, and 11 more variables: arr_delay <dbl>,
#> #   carrier <chr>, flight <int>, tailnum <chr>, origin <chr>, dest <chr>,
#> #   air_time <dbl>, distance <dbl>, hour <dbl>, minute <dbl>, time_hour <dttm>
```

To put `NA` values first, we can add an indicator of whether the column has a missing value.
Then we sort by the missing indicator column and the column of interest. 
For example, to sort the data frame by departure time (`dep_time`) in ascending order but `NA` values first, run the following.

```r
arrange(flights, desc(is.na(dep_time)), dep_time)
#> # A tibble: 336,776 x 19
#>    year month   day dep_time sched_dep_time dep_delay arr_time sched_arr_time
#>   <int> <int> <int>    <int>          <int>     <dbl>    <int>          <int>
#> 1  2013     1     1       NA           1630        NA       NA           1815
#> 2  2013     1     1       NA           1935        NA       NA           2240
#> 3  2013     1     1       NA           1500        NA       NA           1825
#> 4  2013     1     1       NA            600        NA       NA            901
#> 5  2013     1     2       NA           1540        NA       NA           1747
#> 6  2013     1     2       NA           1620        NA       NA           1746
#> # … with 336,770 more rows, and 11 more variables: arr_delay <dbl>,
#> #   carrier <chr>, flight <int>, tailnum <chr>, origin <chr>, dest <chr>,
#> #   air_time <dbl>, distance <dbl>, hour <dbl>, minute <dbl>, time_hour <dttm>
```
…
