20 Vectors | R for Data Science: Exercise Solutions
…
tibble(
  x = c(1.8, 1.5, 1.2, 0.8, 0.5, 0.2, 
        -0.2, -0.5, -0.8, -1.2, -1.5, -1.8),
  `Round down` = floor(x),
  `Round up` = ceiling(x),
  `Round towards zero` = trunc(x),
  `Nearest, round half to even` = round(x)
) 
#> # A tibble: 12 x 5
#>       x `Round down` `Round up` `Round towards zero` `Nearest, round half to ev…
#>   <dbl>        <dbl>      <dbl>                <dbl>                       <dbl>
#> 1   1.8            1          2                    1                           2
#> 2   1.5            1          2                    1                           2
#> 3   1.2            1          2                    1                           1
#> 4   0.8            0          1                    0                           1
#> 5   0.5            0          1                    0                           0
#> 6   0.2            0          1                    0                           0
#> # … with 6 more rows
…
