…
<img src="visualize_files/figure-html/unnamed-chunk-5-1.png" width="70%" style="display: block; margin: auto;" />


A scatter plot is not a useful display of these variables since both `drv` and `class` are categorical variables.
Since categorical variables typically take a small number of values,
there are a limited number of unique combinations of (`x`, `y`) values that can be displayed.
In this data, `drv` takes 3 values and `class` takes 7 values,
meaning that there are only 21 values that could be plotted on a scatterplot of `drv` vs. `class`.
In this data, there 12 values of (`drv`, `class`) are observed.


```r
count(mpg, drv, class)
#> # A tibble: 12 x 3
#>   drv   class          n
#>   <chr> <chr>      <int>
#> 1 4     compact       12
#> 2 4     midsize        3
#> 3 4     pickup        33
#> 4 4     subcompact     4
#> 5 4     suv           51
#> 6 f     compact       35
#> # … with 6 more rows
```
…
The following list contains the continuous variables in `mpg`:

-   `displ`
-   `year`
-   `cyl`
-   `cty`
-   `hwy`

In the printed data frame, angled brackets at the top of each column provide type of each variable.


```r
mpg
#> # A tibble: 234 x 11
#>   manufacturer model displ  year   cyl trans      drv     cty   hwy fl    class 
#>   <chr>        <chr> <dbl> <int> <int> <chr>      <chr> <int> <int> <chr> <chr> 
#> 1 audi         a4      1.8  1999     4 auto(l5)   f        18    29 p     compa…
#> 2 audi         a4      1.8  1999     4 manual(m5) f        21    29 p     compa…
#> 3 audi         a4      2    2008     4 manual(m6) f        20    31 p     compa…
#> 4 audi         a4      2    2008     4 auto(av)   f        21    30 p     compa…
#> 5 audi         a4      2.8  1999     6 auto(l5)   f        16    26 p     compa…
#> 6 audi         a4      2.8  1999     6 manual(m5) f        18    26 p     compa…
#> # … with 228 more rows
```
…
