…
```r
filter(mpg, cyl = 8)
#> Error: Problem with `filter()` input `..1`.
#> ✖ Input `..1` is named.
#> ℹ This usually means that you've used `=` instead of `==`.
#> ℹ Did you mean `cyl == 8`?
```

We aren't done yet. But the error message gives a suggestion. Let's follow it.


```r
filter(mpg, cyl == 8)
#> # A tibble: 70 x 11
#>   manufacturer model      displ  year   cyl trans  drv     cty   hwy fl    class
#>   <chr>        <chr>      <dbl> <int> <int> <chr>  <chr> <int> <int> <chr> <chr>
#> 1 audi         a6 quattro   4.2  2008     8 auto(… 4        16    23 p     mids…
#> 2 chevrolet    c1500 sub…   5.3  2008     8 auto(… r        14    20 r     suv  
#> 3 chevrolet    c1500 sub…   5.3  2008     8 auto(… r        11    15 e     suv  
#> 4 chevrolet    c1500 sub…   5.3  2008     8 auto(… r        14    20 r     suv  
#> 5 chevrolet    c1500 sub…   5.7  1999     8 auto(… r        13    17 r     suv  
#> 6 chevrolet    c1500 sub…   6    2008     8 auto(… r        12    17 r     suv  
#> # … with 64 more rows
```


```r
filter(diamond, carat > 3)
#> Error in filter(diamond, carat > 3): object 'diamond' not found
```

R says it can't find the object `diamond`.
This is a typo; the data frame is named `diamonds`.

```r
filter(diamonds, carat > 3)
#> # A tibble: 32 x 10
#>   carat cut     color clarity depth table price     x     y     z
#>   <dbl> <ord>   <ord> <ord>   <dbl> <dbl> <int> <dbl> <dbl> <dbl>
#> 1  3.01 Premium I     I1       62.7    58  8040  9.1   8.97  5.67
#> 2  3.11 Fair    J     I1       65.9    57  9823  9.15  9.02  5.98
#> 3  3.01 Premium F     I1       62.2    56  9925  9.24  9.13  5.73
#> 4  3.05 Premium E     I1       60.9    58 10453  9.26  9.25  5.66
#> 5  3.02 Fair    I     I1       65.2    56 10577  9.11  9.02  5.91
#> 6  3.01 Fair    H     I1       56.1    62 10761  9.54  9.38  5.31
#> # … with 26 more rows
```
…
