Exercise Solutions and Notes for R for Data Science
…
Oops, I forgot to convert to minutes. I’ll reuse the time2mins function I wrote earlier.

mutate(flights,
       dep_delay2 = time2mins(dep_time) - time2mins(sched_dep_time)) %>%
  filter(dep_delay2 != dep_delay) %>%
  select(dep_time, sched_dep_time, dep_delay, dep_delay2)
#> # A tibble: 1,207 × 4
#>   dep_time sched_dep_time dep_delay dep_delay2
#>      <int>          <int>     <dbl>      <dbl>
#> 1      848           1835       853       -587
#> 2       42           2359        43      -1397
#> 3      126           2250       156      -1284
#> 4       32           2359        33      -1407
#> 5       50           2145       185      -1255
#> 6      235           2359       156      -1284
#> # ... with 1,201 more rows

Well, that solved most of the problems, but these two numbers don’t match because we aren’t accounting for flights where the departure time is the next day from the scheduled departure time.

Find the 10 most delayed flights using a ranking function. How do you want to handle ties? Carefully read the documentation for min_rank().

I’d want to handle ties by taking the minimum of tied values. If three flights are have the same value and are the most delayed, we would say they are tied for first, not tied for third or second.

mutate(flights,
       dep_delay_rank = min_rank(-dep_delay)) %>%
  arrange(dep_delay_rank) %>% 
  filter(dep_delay_rank <= 10)
#> # A tibble: 10 × 20
#>    year month   day dep_time sched_dep_time dep_delay arr_time
#>   <int> <int> <int>    <int>          <int>     <dbl>    <int>
#> 1  2013     1     9      641            900      1301     1242
#> 2  2013     6    15     1432           1935      1137     1607
#> 3  2013     1    10     1121           1635      1126     1239
#> 4  2013     9    20     1139           1845      1014     1457
#> 5  2013     7    22      845           1600      1005     1044
#> 6  2013     4    10     1100           1900       960     1342
#> # ... with 4 more rows, and 13 more variables: sched_arr_time <int>,
#> #   arr_delay <dbl>, carrier <chr>, flight <int>, tailnum <chr>,
#> #   origin <chr>, dest <chr>, air_time <dbl>, distance <dbl>, hour <dbl>,
#> #   minute <dbl>, time_hour <dttm>, dep_delay_rank <int>
…
