R for Data Science Solutions
…
The flights that flew to Houston were:

filter(flights, dest %in% c("IAH", "HOU"))
#> # A tibble: 9,313 x 19
#>    year month   day dep_time sched_dep_time dep_delay arr_time
#>   <int> <int> <int>    <int>          <int>     <dbl>    <int>
#> 1  2013     1     1      517            515         2      830
#> 2  2013     1     1      533            529         4      850
#> 3  2013     1     1      623            627        -4      933
#> 4  2013     1     1      728            732        -4     1041
#> 5  2013     1     1      739            739         0     1104
#> 6  2013     1     1      908            908         0     1228
#> # ... with 9,307 more rows, and 12 more variables: sched_arr_time <int>,
#> #   arr_delay <dbl>, carrier <chr>, flight <int>, tailnum <chr>,
#> #   origin <chr>, dest <chr>, air_time <dbl>, distance <dbl>, hour <dbl>,
#> #   minute <dbl>, time_hour <dttm>

In the flights dataset,
the column carrier indicates the airline, but it uses two-character carrier codes.
We can find the carrier codes for the airlines in the airlines dataset.
Since the carrier code dataset only has 16 rows, and the names
of the airlines in that dataset are not exactly “United”, “American”, or “Delta”,
it is easiest to manually lookup their carrier codes in that data.

airlines
#> # A tibble: 16 x 2
#>   carrier name                    
#>   <chr>   <chr>                   
#> 1 9E      Endeavor Air Inc.       
#> 2 AA      American Airlines Inc.  
#> 3 AS      Alaska Airlines Inc.    
#> 4 B6      JetBlue Airways         
#> 5 DL      Delta Air Lines Inc.    
#> 6 EV      ExpressJet Airlines Inc.
#> # ... with 10 more rows
…
Flights that arrived more than two hours late, but didn’t leave late will have an arrival delay of more than 120 minutes and either departed on time or left early.

filter(flights, dep_delay <= 0, arr_delay > 120)
#> # A tibble: 29 x 19
#>    year month   day dep_time sched_dep_time dep_delay arr_time
#>   <int> <int> <int>    <int>          <int>     <dbl>    <int>
#> 1  2013     1    27     1419           1420        -1     1754
#> 2  2013    10     7     1350           1350         0     1736
#> 3  2013    10     7     1357           1359        -2     1858
#> 4  2013    10    16      657            700        -3     1258
#> 5  2013    11     1      658            700        -2     1329
#> 6  2013     3    18     1844           1847        -3       39
#> # ... with 23 more rows, and 12 more variables: sched_arr_time <int>,
#> #   arr_delay <dbl>, carrier <chr>, flight <int>, tailnum <chr>,
#> #   origin <chr>, dest <chr>, air_time <dbl>, distance <dbl>, hour <dbl>,
#> #   minute <dbl>, time_hour <dttm>

Were delayed by at least an hour, but made up over 30 minutes in flight

filter(flights, dep_delay >= 60, dep_delay - arr_delay > 30)
#> # A tibble: 1,844 x 19
#>    year month   day dep_time sched_dep_time dep_delay arr_time
#>   <int> <int> <int>    <int>          <int>     <dbl>    <int>
#> 1  2013     1     1     2205           1720       285       46
#> 2  2013     1     1     2326           2130       116      131
#> 3  2013     1     3     1503           1221       162     1803
#> 4  2013     1     3     1839           1700        99     2056
#> 5  2013     1     3     1850           1745        65     2148
#> 6  2013     1     3     1941           1759       102     2246
#> # ... with 1,838 more rows, and 12 more variables: sched_arr_time <int>,
#> #   arr_delay <dbl>, carrier <chr>, flight <int>, tailnum <chr>,
#> #   origin <chr>, dest <chr>, air_time <dbl>, distance <dbl>, hour <dbl>,
#> #   minute <dbl>, time_hour <dttm>

Finding flights that departed between midnight and 6 am is complicated by the way in which times are represented in the dep_time column.
In dep_time, midnight is 2400, not 0.
Thus we cannot simply check that dep_time < 600. Instead, we have to do this.

filter(flights, dep_time <= 600 | dep_time == 2400)
#> # A tibble: 9,373 x 19
#>    year month   day dep_time sched_dep_time dep_delay arr_time
#>   <int> <int> <int>    <int>          <int>     <dbl>    <int>
#> 1  2013     1     1      517            515         2      830
#> 2  2013     1     1      533            529         4      850
#> 3  2013     1     1      542            540         2      923
#> 4  2013     1     1      544            545        -1     1004
#> 5  2013     1     1      554            600        -6      812
#> 6  2013     1     1      554            558        -4      740
#> # ... with 9,367 more rows, and 12 more variables: sched_arr_time <int>,
#> #   arr_delay <dbl>, carrier <chr>, flight <int>, tailnum <chr>,
#> #   origin <chr>, dest <chr>, air_time <dbl>, distance <dbl>, hour <dbl>,
#> #   minute <dbl>, time_hour <dttm>

We could avoid using an “or” statement by using the modulo operator, %%. The modulo operator returns the remainder of division.
What happens if we calculate dep_time mod 2400?

c(2400, 600) %% 2400
#> [1]   0 600

Since 2400 %% 2400 == 0 and all other times are left unchanged, we will only need to compare the result of the modulo operation to 600,

filter(flights, dep_time %% 2400 <= 600)
#> # A tibble: 9,373 x 19
#>    year month   day dep_time sched_dep_time dep_delay arr_time
#>   <int> <int> <int>    <int>          <int>     <dbl>    <int>
#> 1  2013     1     1      517            515         2      830
#> 2  2013     1     1      533            529         4      850
#> 3  2013     1     1      542            540         2      923
#> 4  2013     1     1      544            545        -1     1004
#> 5  2013     1     1      554            600        -6      812
#> 6  2013     1     1      554            558        -4      740
#> # ... with 9,367 more rows, and 12 more variables: sched_arr_time <int>,
#> #   arr_delay <dbl>, carrier <chr>, flight <int>, tailnum <chr>,
#> #   origin <chr>, dest <chr>, air_time <dbl>, distance <dbl>, hour <dbl>,
#> #   minute <dbl>, time_hour <dttm>
…
5.2.3 Exercise 3

How many flights have a missing dep_time? What other variables are missing? What might these rows represent?

filter(flights, is.na(dep_time))
#> # A tibble: 8,255 x 19
#>    year month   day dep_time sched_dep_time dep_delay arr_time
#>   <int> <int> <int>    <int>          <int>     <dbl>    <int>
#> 1  2013     1     1       NA           1630        NA       NA
#> 2  2013     1     1       NA           1935        NA       NA
#> 3  2013     1     1       NA           1500        NA       NA
#> 4  2013     1     1       NA            600        NA       NA
#> 5  2013     1     2       NA           1540        NA       NA
#> 6  2013     1     2       NA           1620        NA       NA
#> # ... with 8,249 more rows, and 12 more variables: sched_arr_time <int>,
#> #   arr_delay <dbl>, carrier <chr>, flight <int>, tailnum <chr>,
#> #   origin <chr>, dest <chr>, air_time <dbl>, distance <dbl>, hour <dbl>,
#> #   minute <dbl>, time_hour <dttm>
…
Oops, I forgot to convert to minutes. I’ll reuse the time2mins function I wrote earlier.

mutate(flights,
       dep_delay2 = time2mins(dep_time) - time2mins(sched_dep_time)) %>%
  filter(dep_delay2 != dep_delay) %>%
  select(dep_time, sched_dep_time, dep_delay, dep_delay2)
#> # A tibble: 1,207 x 4
#>   dep_time sched_dep_time dep_delay dep_delay2
#>      <int>          <int>     <dbl>      <dbl>
#> 1      848           1835       853       -587
#> 2       42           2359        43      -1397
#> 3      126           2250       156      -1284
#> 4       32           2359        33      -1407
#> 5       50           2145       185      -1255
#> 6      235           2359       156      -1284
#> # ... with 1,201 more rows

Well, that solved most of the problems, but these two numbers don’t match because we aren’t accounting for flights where the departure time is the next day from the scheduled departure time.

5.5.4 Exercise 4

Find the 10 most delayed flights using a ranking function. How do you want to handle ties? Carefully read the documentation for min_rank().

I’d want to handle ties by taking the minimum of tied values. If three flights are have the same value and are the most delayed, we would say they are tied for first, not tied for third or second.

mutate(flights,
       dep_delay_rank = min_rank(-dep_delay)) %>%
  arrange(dep_delay_rank) %>%
  filter(dep_delay_rank <= 10)
#> # A tibble: 10 x 20
#>    year month   day dep_time sched_dep_time dep_delay arr_time
#>   <int> <int> <int>    <int>          <int>     <dbl>    <int>
#> 1  2013     1     9      641            900      1301     1242
#> 2  2013     6    15     1432           1935      1137     1607
#> 3  2013     1    10     1121           1635      1126     1239
#> 4  2013     9    20     1139           1845      1014     1457
#> 5  2013     7    22      845           1600      1005     1044
#> 6  2013     4    10     1100           1900       960     1342
#> # ... with 4 more rows, and 13 more variables: sched_arr_time <int>,
#> #   arr_delay <dbl>, carrier <chr>, flight <int>, tailnum <chr>,
#> #   origin <chr>, dest <chr>, air_time <dbl>, distance <dbl>, hour <dbl>,
#> #   minute <dbl>, time_hour <dttm>, dep_delay_rank <int>
…
What trigonometric functions does R provide?

These are all described in the same help page,

help("Trig")

Cosine (cos), sine (sin), tangent (tan) are provided:

tibble(
  x = seq(-3, 7, by = 1 / 2),
  cosx = cos(pi * x),
  sinx = cos(pi * x),
  tanx = tan(pi * x)
)
#> # A tibble: 21 x 4
#>       x      cosx      sinx      tanx
#>   <dbl>     <dbl>     <dbl>     <dbl>
#> 1  -3   -1.00e+ 0 -1.00e+ 0  3.67e-16
#> 2  -2.5  3.06e-16  3.06e-16 -3.27e+15
#> 3  -2    1.00e+ 0  1.00e+ 0  2.45e-16
#> 4  -1.5 -1.84e-16 -1.84e-16 -5.44e+15
#> 5  -1   -1.00e+ 0 -1.00e+ 0  1.22e-16
#> 6  -0.5  6.12e-17  6.12e-17 -1.63e+16
#> # ... with 15 more rows

The convenience function cospi(x) is equivalent to cos(pi * x), with sinpi and tanpi similarly defined,

tibble(
  x = seq(-3, 7, by = 1 / 2),
  cosx = cospi(x),
  sinx = cos(x),
  tanx = tan(x)
)
#> # A tibble: 21 x 4
#>       x  cosx    sinx    tanx
#>   <dbl> <dbl>   <dbl>   <dbl>
#> 1  -3      -1 -0.990    0.143
#> 2  -2.5     0 -0.801    0.747
#> 3  -2       1 -0.416    2.19 
#> 4  -1.5     0  0.0707 -14.1  
#> 5  -1      -1  0.540   -1.56 
#> 6  -0.5     0  0.878   -0.546
#> # ... with 15 more rows

The inverse function arc-cosine (acos), arc-sine (asin), and arc-tangent (atan) are provided,

tibble(
  x = seq(-1, 1, by = 1 / 4),
  acosx = acos(x),
  asinx = asin(x),
  atanx = atan(x)
)
#> # A tibble: 9 x 4
#>       x acosx  asinx  atanx
#>   <dbl> <dbl>  <dbl>  <dbl>
#> 1 -1     3.14 -1.57  -0.785
#> 2 -0.75  2.42 -0.848 -0.644
#> 3 -0.5   2.09 -0.524 -0.464
#> 4 -0.25  1.82 -0.253 -0.245
#> 5  0     1.57  0      0    
#> 6  0.25  1.32  0.253  0.245
#> # ... with 3 more rows
…
The data frame not_cancelled is defined in the chapter as,

not_cancelled <- flights %>%
  filter(!is.na(dep_delay), !is.na(arr_delay))

Count will group a dataset on the given variable and then determine the number of instances within each group.
This can be done by by first grouping by the given variable, and then finding the number of observations in each group.
The number of observations in each group can be found by calling the length() function on any variable.
To make the result match count(), the value should go in a new column n.

not_cancelled %>%
  group_by(dest) %>%
  summarise(n = length(dest))
#> # A tibble: 104 x 2
#>   dest      n
#>   <chr> <int>
#> 1 ABQ     254
#> 2 ACK     264
#> 3 ALB     418
#> 4 ANC       8
#> 5 ATL   16837
#> 6 AUS    2411
#> # ... with 98 more rows

A more concise way to get the number of observations in a data frame, or a group, is the function n(),

not_cancelled %>%
  group_by(dest) %>%
  summarise(n = n())
#> # A tibble: 104 x 2
#>   dest      n
#>   <chr> <int>
#> 1 ABQ     254
#> 2 ACK     264
#> 3 ALB     418
#> 4 ANC       8
#> 5 ATL   16837
#> 6 AUS    2411
#> # ... with 98 more rows

For a weighted count, take the sum of the weight variable in each group.

not_cancelled %>%
  group_by(tailnum) %>%
  summarise(n = sum(distance))
#> # A tibble: 4,037 x 2
#>   tailnum      n
#>   <chr>    <dbl>
#> 1 D942DN    3418
#> 2 N0EGMQ  239143
#> 3 N10156  109664
#> 4 N102UW   25722
#> 5 N103US   24619
#> 6 N104UW   24616
#> # ... with 4,031 more rows

Alternatively, we could have used group_by followed by tally(),
since count() itself is a shortcut for calling group_by() then tally(),

not_cancelled %>%
  group_by(tailnum) %>%
  tally()
#> # A tibble: 4,037 x 2
#>   tailnum     n
#>   <chr>   <int>
#> 1 D942DN      4
#> 2 N0EGMQ    352
#> 3 N10156    145
#> 4 N102UW     48
#> 5 N103US     46
#> 6 N104UW     46
#> # ... with 4,031 more rows

and

not_cancelled %>%
  group_by(tailnum) %>%
  tally(distance)
#> # A tibble: 4,037 x 2
#>   tailnum      n
#>   <chr>    <dbl>
#> 1 D942DN    3418
#> 2 N0EGMQ  239143
#> 3 N10156  109664
#> 4 N102UW   25722
#> 5 N103US   24619
#> 6 N104UW   24616
#> # ... with 4,031 more rows

5.6.3 Exercise 3

Our definition of canceled flights (is.na(dep_delay) | is.na(arr_delay)) is slightly suboptimal. Why? Which is the most important column?

If a flight never departs, then it won’t arrive.
A flight could also depart and not arrive if it crashes, or if it is redirected and lands in an airport other than its intended destination.

The more important column is arr_delay, which indicates the amount of delay in arrival.

filter(flights, !is.na(dep_delay), is.na(arr_delay)) %>%
  select(dep_time, arr_time, sched_arr_time, dep_delay, arr_delay)
#> # A tibble: 1,175 x 5
#>   dep_time arr_time sched_arr_time dep_delay arr_delay
#>      <int>    <int>          <int>     <dbl>     <dbl>
#> 1     1525     1934           1805        -5        NA
#> 2     1528     2002           1647        29        NA
#> 3     1740     2158           2020        -5        NA
#> 4     1807     2251           2103        29        NA
#> 5     1939       29           2151        59        NA
#> 6     1952     2358           2207        22        NA
#> # ... with 1,169 more rows
…
5.6.5 Exercise 5

Which carrier has the worst delays? Challenge: can you disentangle the effects of bad airports vs. bad carriers? Why/why not? (Hint: think about flights %>% group_by(carrier, dest) %>% summarise(n()))

flights %>%
  group_by(carrier) %>%
  summarise(arr_delay = mean(arr_delay, na.rm = TRUE)) %>%
  arrange(desc(arr_delay))
#> # A tibble: 16 x 2
#>   carrier arr_delay
#>   <chr>       <dbl>
#> 1 F9           21.9
#> 2 FL           20.1
#> 3 EV           15.8
#> 4 YV           15.6
#> 5 OO           11.9
#> 6 MQ           10.8
#> # ... with 10 more rows
…
5.6.6 Exercise 6

For each plane, count the number of flights before the first delay of greater than 1 hour.

I think this requires grouped mutate (but I may be wrong):

flights %>%
  arrange(tailnum, year, month, day) %>%
  group_by(tailnum) %>%
  mutate(delay_gt1hr = dep_delay > 60) %>%
  mutate(before_delay = cumsum(delay_gt1hr)) %>%
  filter(before_delay < 1) %>%
  count(sort = TRUE)
#> # A tibble: 3,755 x 2
#> # Groups:   tailnum [3,755]
#>   tailnum     n
#>   <chr>   <int>
#> 1 N954UW    206
#> 2 N952UW    163
#> 3 N957UW    142
#> 4 N5FAAA    117
#> 5 N38727     99
#> 6 N3742C     98
#> # ... with 3,749 more rows
…
5.7.3 Exercise 3

What time of day should you fly if you want to avoid delays as much as possible?

Let’s group by hour. The earlier the better to fly. This is intuitive as delays early in the morning are likely to propagate throughout the day.

flights %>%
  group_by(hour) %>%
  summarise(arr_delay = mean(arr_delay, na.rm = TRUE)) %>%
  arrange(arr_delay)
#> # A tibble: 20 x 2
#>    hour arr_delay
#>   <dbl>     <dbl>
#> 1     7    -5.30 
#> 2     5    -4.80 
#> 3     6    -3.38 
#> 4     9    -1.45 
#> 5     8    -1.11 
#> 6    10     0.954
#> # ... with 14 more rows
…
The shorter BOS and PHL flights that are 20 minutes for 30+ minutes flights seem plausible - though maybe entries of +/- a few minutes can easily create large changes.
I assume that departure time has a standardized definition, but I’m not sure; if there is some discretion, that could create errors that are small in absolute time, but large in relative time for small flights.
The ATL, GSP, and BNA flights look suspicious as they are almost half the time of longer flights.

flights %>%
  filter(!is.na(air_time)) %>%
  group_by(dest) %>%
  mutate(med_time = median(air_time),
         fast = (air_time - med_time) / med_time) %>%
  arrange(fast) %>%
  select(air_time, med_time, fast, dep_time, sched_dep_time, arr_time, sched_arr_time) %>%
  head(15)
#> Adding missing grouping variables: `dest`
#> # A tibble: 15 x 8
#> # Groups:   dest [9]
#>   dest  air_time med_time   fast dep_time sched_dep_time arr_time
#>   <chr>    <dbl>    <dbl>  <dbl>    <int>          <int>    <int>
#> 1 BOS         21       38 -0.447     1450           1500     1547
#> 2 ATL         65      112 -0.420     1709           1700     1923
#> 3 GSP         55       92 -0.402     2040           2025     2225
#> 4 BOS         23       38 -0.395     1954           2000     2131
#> 5 BNA         70      113 -0.381     1914           1910     2045
#> 6 MSP         93      149 -0.376     1558           1513     1745
#> # ... with 9 more rows, and 1 more variable: sched_arr_time <int>
…
5.7.7 Exercise 7

Find all destinations that are flown by at least two carriers. Use that information to rank the carriers.

The carrier that flies to the most locations is ExpressJet Airlines (EV).
ExpressJet is a regional airline and partner for major airlines, so its one of those that flies small planes to close airports

flights %>%
  group_by(dest, carrier) %>%
  count(carrier) %>%
  group_by(carrier) %>%
  count(sort = TRUE)
#> # A tibble: 16 x 2
#> # Groups:   carrier [16]
#>   carrier    nn
#>   <chr>   <int>
#> 1 EV         61
#> 2 9E         49
#> 3 UA         47
#> 4 B6         42
#> 5 DL         40
#> 6 MQ         20
#> # ... with 10 more rows
…
