…
<img src="datetimes_files/figure-html/unnamed-chunk-30-1.png" width="70%" style="display: block; margin: auto;" />

At least to me there doesn't appear to much difference in within-day distribution over the year, but I maybe thinking about it incorrectly.

2. Compare `dep_time`, `sched_dep_time` and `dep_delay`. Are they consistent? Explain your findings.

If they are consistent, then `dep_time = sched_dep_time + dep_delay`.


```r
flights_dt %>%
  mutate(dep_time_ = sched_dep_time + dep_delay * 60) %>%
  filter(dep_time_ != dep_time) %>%
  select(dep_time_, dep_time, sched_dep_time, dep_delay)
#> # A tibble: 1,205 × 4
#>             dep_time_            dep_time      sched_dep_time dep_delay
#>                <dttm>              <dttm>              <dttm>     <dbl>
#> 1 2013-01-02 08:48:00 2013-01-01 08:48:00 2013-01-01 18:35:00       853
#> 2 2013-01-03 00:42:00 2013-01-02 00:42:00 2013-01-02 23:59:00        43
#> 3 2013-01-03 01:26:00 2013-01-02 01:26:00 2013-01-02 22:50:00       156
#> 4 2013-01-04 00:32:00 2013-01-03 00:32:00 2013-01-03 23:59:00        33
#> 5 2013-01-04 00:50:00 2013-01-03 00:50:00 2013-01-03 21:45:00       185
#> 6 2013-01-04 02:35:00 2013-01-03 02:35:00 2013-01-03 23:59:00       156
#> # ... with 1,199 more rows
```
…
<img src="datetimes_files/figure-html/unnamed-chunk-33-1.png" width="70%" style="display: block; margin: auto;" />

5. On what day of the week should you leave if you want to minimise the chance of a delay?

Sunday has the lowest average departure delay time and the lowest average arrival delay time.


```r
flights_dt %>%
  mutate(dow = wday(sched_dep_time)) %>%
  group_by(dow) %>%
  summarise(dep_delay = mean(dep_delay),
            arr_delay = mean(arr_delay, na.rm = TRUE))
#> # A tibble: 7 × 3
#>     dow dep_delay arr_delay
#>   <dbl>     <dbl>     <dbl>
#> 1     1      11.5      4.82
#> 2     2      14.7      9.65
#> 3     3      10.6      5.39
#> 4     4      11.7      7.05
#> 5     5      16.1     11.74
#> 6     6      14.7      9.07
#> # ... with 1 more rows
```
…
