Exercise Solutions and Notes for R for Data Science
…
Arrival delay is more important. Arriving early is nice, but equally as good as arriving late is bad. Variation is worse than consistency; if I know the plane will always arrive 10 minutes late, then I can plan for it arriving as if the actual arrival time was 10 minutes later than the scheduled arrival time.

So I’d try something that calculates the expected time of the flight, and then aggregates over any delays from that time. I would ignore any early arrival times. A better ranking would also consider cancellations, and need a way to convert them to a delay time (perhaps using the arrival time of the next flight to the same destination).

Come up with another approach that will give you the same output as not_cancelled %>% count(dest) and not_cancelled %>% count(tailnum, wt = distance) (without using count()).

Our definition of cancelled flights (is.na(dep_delay) | is.na(arr_delay)) is slightly suboptimal. Why? Which is the most important column?

If a flight doesn’t depart, then it won’t arrive. A flight can also depart and not arrive if it crashes; I’m not sure how this data would handle flights that are redirected and land at other airports for whatever reason.

The more important column is arr_delay so we could just use that.

filter(flights, !is.na(dep_delay), is.na(arr_delay)) %>%
  select(dep_time, arr_time, sched_arr_time, dep_delay, arr_delay)
#> # A tibble: 1,175 × 5
#>   dep_time arr_time sched_arr_time dep_delay arr_delay
#>      <int>    <int>          <int>     <dbl>     <dbl>
#> 1     1525     1934           1805        -5        NA
#> 2     1528     2002           1647        29        NA
#> 3     1740     2158           2020        -5        NA
#> 4     1807     2251           2103        29        NA
#> 5     1939       29           2151        59        NA
#> 6     1952     2358           2207        22        NA
#> # ... with 1,169 more rows
…
Which carrier has the worst delays? Challenge: can you disentangle the effects of bad airports vs. bad carriers? Why/why not? (Hint: think about flights %>% group_by(carrier, dest) %>% summarise(n()))

flights %>%
  group_by(carrier) %>%
  summarise(arr_delay = mean(arr_delay, na.rm = TRUE)) %>%
  arrange(desc(arr_delay))
#> # A tibble: 16 × 2
#>   carrier arr_delay
#>     <chr>     <dbl>
#> 1      F9      21.9
#> 2      FL      20.1
#> 3      EV      15.8
#> 4      YV      15.6
#> 5      OO      11.9
#> 6      MQ      10.8
#> # ... with 10 more rows
…
538 has done something like this: http://fivethirtyeight.com/features/the-best-and-worst-airlines-airports-and-flights-summer-2015-update/.

For each plane, count the number of flights before the first delay of greater than 1 hour.

I think this requires grouped mutate (but I may be wrong):

flights %>%
  arrange(tailnum, year, month, day) %>%
  group_by(tailnum) %>%
  mutate(delay_gt1hr = dep_delay > 60) %>%
  mutate(before_delay = cumsum(delay_gt1hr)) %>%
  filter(before_delay < 1) %>%
  count(sort = TRUE)
#> # A tibble: 3,755 × 2
#>   tailnum     n
#>     <chr> <int>
#> 1  N954UW   206
#> 2  N952UW   163
#> 3  N957UW   142
#> 4  N5FAAA   117
#> 5  N38727    99
#> 6  N3742C    98
#> # ... with 3,749 more rows
…
