Exercise Solutions to R for Data Science
…
13.2 Filtering Joins

13.2.1 Exercise 1

What does it mean for a flight to have a missing tailnum? What do the tail numbers that don’t have a matching record in planes have in common? (Hint: one variable explains ~90% of the problems.)

American Airlines (AA) and Envoy Airlines (MQ) don’t report tail numbers.

flights %>%
  anti_join(planes, by = "tailnum") %>%
  count(carrier, sort = TRUE)
#> # A tibble: 10 x 2
#>   carrier     n
#>   <chr>   <int>
#> 1 MQ      25397
#> 2 AA      22558
#> 3 UA       1693
#> 4 9E       1044
#> 5 B6        830
#> 6 US        699
#> # ... with 4 more rows
…
13.2.4 Exercise 3

Find the 48 hours (over the course of the whole year) that have the worst delays. Cross-reference it with the weather data. Can you see any patterns?

flights %>%
  group_by(year, month, day) %>%
  summarise(total_24 = sum(dep_delay, na.rm = TRUE)+ sum(arr_delay, na.rm = TRUE)) %>%
  mutate(total_48 = total_24 + lag(total_24)) %>%
  arrange(desc(total_48))
#> # A tibble: 365 x 5
#> # Groups:   year, month [12]
#>    year month   day total_24 total_48
#>   <int> <int> <int>    <dbl>    <dbl>
#> 1  2013     7    23    80641   175419
#> 2  2013     3     8   135264   167530
#> 3  2013     6    25    80434   166649
#> 4  2013     8     9    72866   165287
#> 5  2013     6    28    81389   157910
#> 6  2013     7    10    97120   157396
#> # ... with 359 more rows
…
