…
3. Why did moving “Not applicable” to the front of the levels move it to the bottom of the plot?

Because that gives the level "Not applicable" an integer value of 1.

## Modifying factor levels


```r
gss_cat %>% count(partyid)
#> # A tibble: 10 × 2
#>              partyid     n
#>               <fctr> <int>
#> 1          No answer   154
#> 2         Don't know     1
#> 3        Other party   393
#> 4  Strong republican  2314
#> 5 Not str republican  3032
#> 6       Ind,near rep  1791
#> # ... with 4 more rows
```


```r
gss_cat %>%
  mutate(partyid = fct_recode(partyid,
    "Republican, strong"    = "Strong republican",
    "Republican, weak"      = "Not str republican",
    "Independent, near rep" = "Ind,near rep",
    "Independent, near dem" = "Ind,near dem",
    "Democrat, weak"        = "Not str democrat",
    "Democrat, strong"      = "Strong democrat"
  )) %>%
  count(partyid)
#> # A tibble: 10 × 2
#>                 partyid     n
#>                  <fctr> <int>
#> 1             No answer   154
#> 2            Don't know     1
#> 3           Other party   393
#> 4    Republican, strong  2314
#> 5      Republican, weak  3032
#> 6 Independent, near rep  1791
#> # ... with 4 more rows
```
```r
gss_cat %>%
  mutate(partyid = fct_recode(partyid,
    "Republican, strong"    = "Strong republican",
    "Republican, weak"      = "Not str republican",
    "Independent, near rep" = "Ind,near rep",
    "Independent, near dem" = "Ind,near dem",
    "Democrat, weak"        = "Not str democrat",
    "Democrat, strong"      = "Strong democrat",
    "Other"                 = "No answer",
    "Other"                 = "Don't know",
    "Other"                 = "Other party"
  )) %>%
  count(partyid)
#> # A tibble: 8 × 2
#>                 partyid     n
#>                  <fctr> <int>
#> 1                 Other   548
#> 2    Republican, strong  2314
#> 3      Republican, weak  3032
#> 4 Independent, near rep  1791
#> 5           Independent  4119
#> 6 Independent, near dem  2499
#> # ... with 2 more rows
```
…
