Exercise Solutions and Notes for R for Data Science
…
levels(gss_cat$partyid)
#>  [1] "No answer"          "Don't know"         "Other party"       
#>  [4] "Strong republican"  "Not str republican" "Ind,near rep"      
#>  [7] "Independent"        "Ind,near dem"       "Not str democrat"  
#> [10] "Strong democrat"

Why did moving “Not applicable” to the front of the levels move it to the bottom of the plot?

Because that gives the level “Not applicable” an integer value of 1.

10.5 Modifying factor levels

gss_cat %>% count(partyid)
#> # A tibble: 10 × 2
#>              partyid     n
#>               <fctr> <int>
#> 1          No answer   154
#> 2         Don't know     1
#> 3        Other party   393
#> 4  Strong republican  2314
#> 5 Not str republican  3032
#> 6       Ind,near rep  1791
#> # ... with 4 more rows

gss_cat %>%
  mutate(partyid = fct_recode(partyid,
    "Republican, strong"    = "Strong republican",
    "Republican, weak"      = "Not str republican",
    "Independent, near rep" = "Ind,near rep",
    "Independent, near dem" = "Ind,near dem",
    "Democrat, weak"        = "Not str democrat",
    "Democrat, strong"      = "Strong democrat"
  )) %>%
  count(partyid)
#> # A tibble: 10 × 2
#>                 partyid     n
#>                  <fctr> <int>
#> 1             No answer   154
#> 2            Don't know     1
#> 3           Other party   393
#> 4    Republican, strong  2314
#> 5      Republican, weak  3032
#> 6 Independent, near rep  1791
#> # ... with 4 more rows

gss_cat %>%
  mutate(partyid = fct_recode(partyid,
    "Republican, strong"    = "Strong republican",
    "Republican, weak"      = "Not str republican",
    "Independent, near rep" = "Ind,near rep",
    "Independent, near dem" = "Ind,near dem",
    "Democrat, weak"        = "Not str democrat",
    "Democrat, strong"      = "Strong democrat",
    "Other"                 = "No answer",
    "Other"                 = "Don't know",
    "Other"                 = "Other party"
  )) %>%
  count(partyid)
#> # A tibble: 8 × 2
#>                 partyid     n
#>                  <fctr> <int>
#> 1                 Other   548
#> 2    Republican, strong  2314
#> 3      Republican, weak  3032
#> 4 Independent, near rep  1791
#> 5           Independent  4119
#> 6 Independent, near dem  2499
#> # ... with 2 more rows
…
At least to me there doesn’t appear to much difference in within-day distribution over the year, but I maybe thinking about it incorrectly.

Compare dep_time, sched_dep_time and dep_delay. Are they consistent? Explain your findings.

If they are consistent, then dep_time = sched_dep_time + dep_delay.

flights_dt %>%
  mutate(dep_time_ = sched_dep_time + dep_delay * 60) %>%
  filter(dep_time_ != dep_time) %>%
  select(dep_time_, dep_time, sched_dep_time, dep_delay)
#> # A tibble: 1,205 × 4
#>             dep_time_            dep_time      sched_dep_time dep_delay
#>                <dttm>              <dttm>              <dttm>     <dbl>
#> 1 2013-01-02 08:48:00 2013-01-01 08:48:00 2013-01-01 18:35:00       853
#> 2 2013-01-03 00:42:00 2013-01-02 00:42:00 2013-01-02 23:59:00        43
#> 3 2013-01-03 01:26:00 2013-01-02 01:26:00 2013-01-02 22:50:00       156
#> 4 2013-01-04 00:32:00 2013-01-03 00:32:00 2013-01-03 23:59:00        33
#> 5 2013-01-04 00:50:00 2013-01-03 00:50:00 2013-01-03 21:45:00       185
#> 6 2013-01-04 02:35:00 2013-01-03 02:35:00 2013-01-03 23:59:00       156
#> # ... with 1,199 more rows
…
On what day of the week should you leave if you want to minimise the chance of a delay?

Sunday has the lowest average departure delay time and the lowest average arrival delay time.

flights_dt %>%
  mutate(dow = wday(sched_dep_time)) %>%
  group_by(dow) %>%
  summarise(dep_delay = mean(dep_delay),
            arr_delay = mean(arr_delay, na.rm = TRUE))
#> # A tibble: 7 × 3
#>     dow dep_delay arr_delay
#>   <dbl>     <dbl>     <dbl>
#> 1     1      11.5      4.82
#> 2     2      14.7      9.65
#> 3     3      10.6      5.39
#> 4     4      11.7      7.05
#> 5     5      16.1     11.74
#> 6     6      14.7      9.07
#> # ... with 1 more rows
…
