Exercise Solutions and Notes for R for Data Science
…
What time of day should you fly if you want to avoid delays as much as possible?

Let’s group by hour. The earlier the better to fly. This is intuitive as delays early in the morning are likely to propogate throughout the day.

flights %>%
  group_by(hour) %>%
  summarise(arr_delay = mean(arr_delay, na.rm = TRUE)) %>%
  ungroup() %>%
  arrange(arr_delay)
#> # A tibble: 20 × 2
#>    hour arr_delay
#>   <dbl>     <dbl>
#> 1     7    -5.304
#> 2     5    -4.797
#> 3     6    -3.384
#> 4     9    -1.451
#> 5     8    -1.113
#> 6    10     0.954
#> # ... with 14 more rows
…
Look at each destination. Can you find flights that are suspiciously fast? (i.e. flights that represent a potential data entry error). Compute the air time a flight relative to the shortest flight to that destination. Which flights were most delayed in the air?

The shorter BOS and PHL flights that are 20 minutes for 30+ minutes flights seem plausible - though maybe entries of +/- a few minutes can easily create large changes. I assume that departure time has a standardized definition, but I’m not sure; if there is some discretion, that could create errors that are small in absolute time, but large in relative time for small flights. The ATL, GSP, an BNA flights looks a little suspicious as it’s almost half the time for longer flights.

flights %>%
  filter(!is.na(air_time)) %>%
  group_by(dest) %>%
  mutate(med_time = median(air_time),
         fast = (air_time - med_time) / med_time) %>%
  arrange(fast) %>%
  select(air_time, med_time, fast, dep_time, sched_dep_time, arr_time, sched_arr_time) %>%
  head(15)
#> Adding missing grouping variables: `dest`
#> Source: local data frame [15 x 8]
#> Groups: dest [9]
#> 
#>    dest air_time med_time   fast dep_time sched_dep_time arr_time
#>   <chr>    <dbl>    <dbl>  <dbl>    <int>          <int>    <int>
#> 1   BOS       21       38 -0.447     1450           1500     1547
#> 2   ATL       65      112 -0.420     1709           1700     1923
#> 3   GSP       55       92 -0.402     2040           2025     2225
#> 4   BOS       23       38 -0.395     1954           2000     2131
#> 5   BNA       70      113 -0.381     1914           1910     2045
#> 6   MSP       93      149 -0.376     1558           1513     1745
#> # ... with 9 more rows, and 1 more variables: sched_arr_time <int>
…
Find all destinations that are flown by at least two carriers. Use that information to rank the carriers.

The carrier tha flies to the most locations is ExpressJet Airlines (EV). ExpressJet is a regional airline and partner for major airlines, so its one of those that flies small planes to close airports

flights %>% 
  group_by(dest, carrier) %>%
  count(carrier) %>%
  group_by(carrier) %>%
  count(sort = TRUE)
#> # A tibble: 16 × 2
#>   carrier    nn
#>     <chr> <int>
#> 1      EV    61
#> 2      9E    49
#> 3      UA    47
#> 4      B6    42
#> 5      DL    40
#> 6      MQ    20
#> # ... with 10 more rows
…
