Exercise Solutions and Notes for R for Data Science
…
A scatterplot is not a useful way to plot these variables, since both drv and class are factor variables, and the scatterplot cannot show which are overlapping or not.

count(mpg, drv, class)
#> Source: local data frame [12 x 3]
#> Groups: drv [?]
#> 
#>     drv      class     n
#>   <chr>      <chr> <int>
#> 1     4    compact    12
#> 2     4    midsize     3
#> 3     4     pickup    33
#> 4     4 subcompact     4
#> 5     4        suv    51
#> 6     f    compact    35
#> # ... with 6 more rows
…
Since color = "blue" was included within the mapping argument, it was treated as an aesthetic (a mapping between a variable and a value). It was treated as a variable which has only one value: “blue”.

Which variables in mpg are categorical? Which variables are continuous? (Hint: type ?mpg to read the documentation for the dataset). How can you see this information when you run mpg?

?mpg

When printing the data frame, this information is given at the top of each column within angled brackets. Categorical variables have a class of “character” (<chr>).

mpg
#> # A tibble: 234 × 11
#>   manufacturer model displ  year   cyl      trans   drv   cty   hwy    fl
#>          <chr> <chr> <dbl> <int> <int>      <chr> <chr> <int> <int> <chr>
#> 1         audi    a4   1.8  1999     4   auto(l5)     f    18    29     p
#> 2         audi    a4   1.8  1999     4 manual(m5)     f    21    29     p
#> 3         audi    a4   2.0  2008     4 manual(m6)     f    20    31     p
#> 4         audi    a4   2.0  2008     4   auto(av)     f    21    30     p
#> 5         audi    a4   2.8  1999     6   auto(l5)     f    16    26     p
#> 6         audi    a4   2.8  1999     6 manual(m5)     f    18    26     p
#> # ... with 228 more rows, and 1 more variables: class <chr>
…
