Exercise Solutions to R for Data Science
…
The average squared and absolute errors are \(2^0.19 = 1.14\) and \(2^0.10\) so on average, the error is \(\pm 10--15\)%. And the 95% range of residuals is about \(2^0.37 = 1.3\) so within \(\pm 30\)%. This doesn’t seem terrible to me.

20.2.2 What affects the number of daily flights?

Doesn’t discuss why and how chooses spline of 5 knots.

Introduces natural splines

library("nycflights13")
daily <- flights %>% 
  mutate(date = make_date(year, month, day)) %>% 
  group_by(date) %>% 
  summarise(n = n())
daily
#> # A tibble: 365 x 2
#>   date           n
#>   <date>     <int>
#> 1 2013-01-01   842
#> 2 2013-01-02   943
#> 3 2013-01-03   914
#> 4 2013-01-04   915
#> 5 2013-01-05   720
#> 6 2013-01-06   832
#> # ... with 359 more rows
…
mod5 <- lm(n ~ wday3, data = daily)

daily %>% 
  spread_residuals(mod5) %>%
  arrange(desc(abs(resid))) %>%
  slice(1:20) %>% select(date, wday, resid)
#> # A tibble: 20 x 3
#>   date       wday  resid
#>   <date>     <ord> <dbl>
#> 1 2013-11-28 Thu    -332
#> 2 2013-11-29 Fri    -306
#> 3 2013-12-25 Wed    -244
#> 4 2013-07-04 Thu    -229
#> 5 2013-12-24 Tue    -190
#> 6 2013-12-31 Tue    -175
#> # ... with 14 more rows
…
