…
```r
sim1_dist <- function(a1, a2) {
  measure_distance(c(a1, a2), sim1)
}

models <- models %>% 
  mutate(dist = purrr::map2_dbl(a1, a2, sim1_dist))
models
#> # A tibble: 250 × 3
#>       a1      a2  dist
#>    <dbl>   <dbl> <dbl>
#> 1 -15.15  0.0889  30.8
#> 2  30.06 -0.8274  13.2
#> 3  16.05  2.2695  13.2
#> 4 -10.57  1.3769  18.7
#> 5 -19.56 -1.0359  41.8
#> 6   7.98  4.5948  19.3
#> # ... with 244 more rows
```
…
1. predictions
2. residuals

Notes

- look at `tidyr::complete`, `tidyr::expand`, and `modelr::data_grid` functions
- `modelr::add_residuals` and `modelr::add_predictions` functions add residuals or predictions to the original data
- `geom_ref_line`


```r
grid <- sim1 %>% data_grid(x)
grid
#> # A tibble: 10 × 1
#>       x
#>   <int>
#> 1     1
#> 2     2
#> 3     3
#> 4     4
#> 5     5
#> 6     6
#> # ... with 4 more rows
```


```r
grid <- grid %>%
  add_predictions(sim1_mod)
grid
#> # A tibble: 10 × 2
#>       x  pred
#>   <int> <dbl>
#> 1     1  6.27
#> 2     2  8.32
#> 3     3 10.38
#> 4     4 12.43
#> 5     5 14.48
#> 6     6 16.53
#> # ... with 4 more rows
```

```r
ggplot(sim1, aes(x)) +
  geom_point(aes(y = y)) +
  geom_line(aes(y = pred), data = grid, colour = "red", size = 1)
```

<img src="model-basics_files/figure-html/unnamed-chunk-22-1.png" width="70%" style="display: block; margin: auto;" />


```r
sim1 <- sim1 %>%
  add_residuals(sim1_mod)
sim1
#> # A tibble: 30 × 3
#>       x     y  resid
#>   <int> <dbl>  <dbl>
#> 1     1  4.20 -2.072
#> 2     1  7.51  1.238
#> 3     1  2.13 -4.147
#> 4     2  8.99  0.665
#> 5     2 10.24  1.919
#> 6     2 11.30  2.973
#> # ... with 24 more rows
…
<img src="model-basics_files/figure-html/unnamed-chunk-35-1.png" width="70%" style="display: block; margin: auto;" />


```r
mod1 <- lm(y ~ x1 + x2, data = sim3)
mod2 <- lm(y ~ x1 * x2, data = sim3)
```


```r
grid <- sim3 %>% 
  data_grid(x1, x2) %>% 
  gather_predictions(mod1, mod2)
grid
#> # A tibble: 80 × 4
#>   model    x1     x2  pred
#>   <chr> <int> <fctr> <dbl>
#> 1  mod1     1      a  1.67
#> 2  mod1     1      b  4.56
#> 3  mod1     1      c  6.48
#> 4  mod1     1      d  4.03
#> 5  mod1     2      a  1.48
#> 6  mod1     2      b  4.37
#> # ... with 74 more rows
```
…
<img src="model-basics_files/figure-html/unnamed-chunk-39-1.png" width="70%" style="display: block; margin: auto;" />


```r
mod1 <- lm(y ~ x1 + x2, data = sim4)
mod2 <- lm(y ~ x1 * x2, data = sim4)

grid <- sim4 %>% 
  data_grid(
    x1 = seq_range(x1, 5), 
    x2 = seq_range(x2, 5) 
  ) %>% 
  gather_predictions(mod1, mod2)
grid
#> # A tibble: 50 × 4
#>   model    x1    x2   pred
#>   <chr> <dbl> <dbl>  <dbl>
#> 1  mod1  -1.0  -1.0  0.996
#> 2  mod1  -1.0  -0.5 -0.395
#> 3  mod1  -1.0   0.0 -1.786
#> 4  mod1  -1.0   0.5 -3.177
#> 5  mod1  -1.0   1.0 -4.569
#> 6  mod1  -0.5  -1.0  1.907
#> # ... with 44 more rows
```
…
