Exercise Solutions and Notes for R for Data Science
…
Oops, I forgot to convert to minutes. I’ll reuse the time2mins function I wrote earlier.

mutate(flights,
       dep_delay2 = time2mins(dep_time) - time2mins(sched_dep_time)) %>%
  filter(dep_delay2 != dep_delay) %>%
  select(dep_time, sched_dep_time, dep_delay, dep_delay2)
#> # A tibble: 1,207 × 4
#>   dep_time sched_dep_time dep_delay dep_delay2
#>      <int>          <int>     <dbl>      <dbl>
#> 1      848           1835       853       -587
#> 2       42           2359        43      -1397
#> 3      126           2250       156      -1284
#> 4       32           2359        33      -1407
#> 5       50           2145       185      -1255
#> 6      235           2359       156      -1284
#> # ... with 1,201 more rows

Well, that solved most of the problems, but these two numbers don’t match because we aren’t accounting for flights where the departure time is the next day from the scheduled departure time.

Find the 10 most delayed flights using a ranking function. How do you want to handle ties? Carefully read the documentation for min_rank().

I’d want to handle ties by taking the minimum of tied values. If three flights are have the same value and are the most delayed, we would say they are tied for first, not tied for third or second.

mutate(flights,
       dep_delay_rank = min_rank(-dep_delay)) %>%
  arrange(dep_delay_rank) %>% 
  filter(dep_delay_rank <= 10)
#> # A tibble: 10 × 20
#>    year month   day dep_time sched_dep_time dep_delay arr_time
#>   <int> <int> <int>    <int>          <int>     <dbl>    <int>
#> 1  2013     1     9      641            900      1301     1242
#> 2  2013     6    15     1432           1935      1137     1607
#> 3  2013     1    10     1121           1635      1126     1239
#> 4  2013     9    20     1139           1845      1014     1457
#> 5  2013     7    22      845           1600      1005     1044
#> 6  2013     4    10     1100           1900       960     1342
#> # ... with 4 more rows, and 13 more variables: sched_arr_time <int>,
#> #   arr_delay <dbl>, carrier <chr>, flight <int>, tailnum <chr>,
#> #   origin <chr>, dest <chr>, air_time <dbl>, distance <dbl>, hour <dbl>,
#> #   minute <dbl>, time_hour <dttm>, dep_delay_rank <int>
…
Arrival delay is more important. Arriving early is nice, but equally as good as arriving late is bad. Variation is worse than consistency; if I know the plane will always arrive 10 minutes late, then I can plan for it arriving as if the actual arrival time was 10 minutes later than the scheduled arrival time.

So I’d try something that calculates the expected time of the flight, and then aggregates over any delays from that time. I would ignore any early arrival times. A better ranking would also consider cancellations, and need a way to convert them to a delay time (perhaps using the arrival time of the next flight to the same destination).

Come up with another approach that will give you the same output as not_cancelled %>% count(dest) and not_cancelled %>% count(tailnum, wt = distance) (without using count()).

Our definition of cancelled flights (is.na(dep_delay) | is.na(arr_delay)) is slightly suboptimal. Why? Which is the most important column?

If a flight doesn’t depart, then it won’t arrive. A flight can also depart and not arrive if it crashes; I’m not sure how this data would handle flights that are redirected and land at other airports for whatever reason.

The more important column is arr_delay so we could just use that.

filter(flights, !is.na(dep_delay), is.na(arr_delay)) %>%
  select(dep_time, arr_time, sched_arr_time, dep_delay, arr_delay)
#> # A tibble: 1,175 × 5
#>   dep_time arr_time sched_arr_time dep_delay arr_delay
#>      <int>    <int>          <int>     <dbl>     <dbl>
#> 1     1525     1934           1805        -5        NA
#> 2     1528     2002           1647        29        NA
#> 3     1740     2158           2020        -5        NA
#> 4     1807     2251           2103        29        NA
#> 5     1939       29           2151        59        NA
#> 6     1952     2358           2207        22        NA
#> # ... with 1,169 more rows
…
Which carrier has the worst delays? Challenge: can you disentangle the effects of bad airports vs. bad carriers? Why/why not? (Hint: think about flights %>% group_by(carrier, dest) %>% summarise(n()))

flights %>%
  group_by(carrier) %>%
  summarise(arr_delay = mean(arr_delay, na.rm = TRUE)) %>%
  arrange(desc(arr_delay))
#> # A tibble: 16 × 2
#>   carrier arr_delay
#>     <chr>     <dbl>
#> 1      F9      21.9
#> 2      FL      20.1
#> 3      EV      15.8
#> 4      YV      15.6
#> 5      OO      11.9
#> 6      MQ      10.8
#> # ... with 10 more rows
…
538 has done something like this: http://fivethirtyeight.com/features/the-best-and-worst-airlines-airports-and-flights-summer-2015-update/.

For each plane, count the number of flights before the first delay of greater than 1 hour.

I think this requires grouped mutate (but I may be wrong):

flights %>%
  arrange(tailnum, year, month, day) %>%
  group_by(tailnum) %>%
  mutate(delay_gt1hr = dep_delay > 60) %>%
  mutate(before_delay = cumsum(delay_gt1hr)) %>%
  filter(before_delay < 1) %>%
  count(sort = TRUE)
#> # A tibble: 3,755 × 2
#>   tailnum     n
#>     <chr> <int>
#> 1  N954UW   206
#> 2  N952UW   163
#> 3  N957UW   142
#> 4  N5FAAA   117
#> 5  N38727    99
#> 6  N3742C    98
#> # ... with 3,749 more rows
…
What time of day should you fly if you want to avoid delays as much as possible?

Let’s group by hour. The earlier the better to fly. This is intuitive as delays early in the morning are likely to propogate throughout the day.

flights %>%
  group_by(hour) %>%
  summarise(arr_delay = mean(arr_delay, na.rm = TRUE)) %>%
  ungroup() %>%
  arrange(arr_delay)
#> # A tibble: 20 × 2
#>    hour arr_delay
#>   <dbl>     <dbl>
#> 1     7    -5.304
#> 2     5    -4.797
#> 3     6    -3.384
#> 4     9    -1.451
#> 5     8    -1.113
#> 6    10     0.954
#> # ... with 14 more rows
…
Look at each destination. Can you find flights that are suspiciously fast? (i.e. flights that represent a potential data entry error). Compute the air time a flight relative to the shortest flight to that destination. Which flights were most delayed in the air?

The shorter BOS and PHL flights that are 20 minutes for 30+ minutes flights seem plausible - though maybe entries of +/- a few minutes can easily create large changes. I assume that departure time has a standardized definition, but I’m not sure; if there is some discretion, that could create errors that are small in absolute time, but large in relative time for small flights. The ATL, GSP, an BNA flights looks a little suspicious as it’s almost half the time for longer flights.

flights %>%
  filter(!is.na(air_time)) %>%
  group_by(dest) %>%
  mutate(med_time = median(air_time),
         fast = (air_time - med_time) / med_time) %>%
  arrange(fast) %>%
  select(air_time, med_time, fast, dep_time, sched_dep_time, arr_time, sched_arr_time) %>%
  head(15)
#> Adding missing grouping variables: `dest`
#> Source: local data frame [15 x 8]
#> Groups: dest [9]
#> 
#>    dest air_time med_time   fast dep_time sched_dep_time arr_time
#>   <chr>    <dbl>    <dbl>  <dbl>    <int>          <int>    <int>
#> 1   BOS       21       38 -0.447     1450           1500     1547
#> 2   ATL       65      112 -0.420     1709           1700     1923
#> 3   GSP       55       92 -0.402     2040           2025     2225
#> 4   BOS       23       38 -0.395     1954           2000     2131
#> 5   BNA       70      113 -0.381     1914           1910     2045
#> 6   MSP       93      149 -0.376     1558           1513     1745
#> # ... with 9 more rows, and 1 more variables: sched_arr_time <int>
…
Find all destinations that are flown by at least two carriers. Use that information to rank the carriers.

The carrier tha flies to the most locations is ExpressJet Airlines (EV). ExpressJet is a regional airline and partner for major airlines, so its one of those that flies small planes to close airports

flights %>% 
  group_by(dest, carrier) %>%
  count(carrier) %>%
  group_by(carrier) %>%
  count(sort = TRUE)
#> # A tibble: 16 × 2
#>   carrier    nn
#>     <chr> <int>
#> 1      EV    61
#> 2      9E    49
#> 3      UA    47
#> 4      B6    42
#> 5      DL    40
#> 6      MQ    20
#> # ... with 10 more rows
…
