Exercise Solutions and Notes for R for Data Science
…
TODO: fuzzy joining

9.2 nycflights13

NOTES

nycflights13 is an example of a data-only R package. R packages can contain both functions and data. Since data-sets can get large, often they can be packaged as their own dataset. These sorts of data-only R packages make it convenient for R users to access your data, but it should not be the only way you provide your research data. Not everyone uses R, so the original data should be provided in a program agnostic format (e.g. csv files). This also holds for those using Stata; they should not be distributing data in .dta format files specific to Stata (even if as we saw earlier, other programs can read that data.) Another example of a data-only R package is gapminder.

How does Hadley create his diagrams?

The four tables in the nycflights13 package:

airlines
#> # A tibble: 16 × 2
#>   carrier                     name
#>     <chr>                    <chr>
#> 1      9E        Endeavor Air Inc.
#> 2      AA   American Airlines Inc.
#> 3      AS     Alaska Airlines Inc.
#> 4      B6          JetBlue Airways
#> 5      DL     Delta Air Lines Inc.
#> 6      EV ExpressJet Airlines Inc.
#> # ... with 10 more rows
airports
#> # A tibble: 1,458 × 8
#>     faa                           name   lat   lon   alt    tz   dst
#>   <chr>                          <chr> <dbl> <dbl> <int> <dbl> <chr>
#> 1   04G              Lansdowne Airport  41.1 -80.6  1044    -5     A
#> 2   06A  Moton Field Municipal Airport  32.5 -85.7   264    -6     A
#> 3   06C            Schaumburg Regional  42.0 -88.1   801    -6     A
#> 4   06N                Randall Airport  41.4 -74.4   523    -5     A
#> 5   09J          Jekyll Island Airport  31.1 -81.4    11    -5     A
#> 6   0A9 Elizabethton Municipal Airport  36.4 -82.2  1593    -5     A
#> # ... with 1,452 more rows, and 1 more variables: tzone <chr>
planes
#> # A tibble: 3,322 × 9
#>   tailnum  year                    type     manufacturer     model engines
#>     <chr> <int>                   <chr>            <chr>     <chr>   <int>
#> 1  N10156  2004 Fixed wing multi engine          EMBRAER EMB-145XR       2
#> 2  N102UW  1998 Fixed wing multi engine AIRBUS INDUSTRIE  A320-214       2
#> 3  N103US  1999 Fixed wing multi engine AIRBUS INDUSTRIE  A320-214       2
#> 4  N104UW  1999 Fixed wing multi engine AIRBUS INDUSTRIE  A320-214       2
#> 5  N10575  2002 Fixed wing multi engine          EMBRAER EMB-145LR       2
#> 6  N105UW  1999 Fixed wing multi engine AIRBUS INDUSTRIE  A320-214       2
#> # ... with 3,316 more rows, and 3 more variables: seats <int>,
#> #   speed <int>, engine <chr>
…
semi_join: keep all obs in x with match in y

anti_join: drop all obs in x with a match in y

9.5.1 Exercises

What does it mean for a flight to have a missing tailnum? What do the tail numbers that don’t have a matching record in planes have in common? (Hint: one variable explains ~90% of the problems.)

American Airlines (AA) and Envoy Airlines (MQ) don’t report tail numbers.

flights %>%
  anti_join(planes, by = "tailnum") %>%
  count(carrier, sort = TRUE)
#> # A tibble: 10 × 2
#>   carrier     n
#>     <chr> <int>
#> 1      MQ 25397
#> 2      AA 22558
#> 3      UA  1693
#> 4      9E  1044
#> 5      B6   830
#> 6      US   699
#> # ... with 4 more rows
…
anti_join(flights, airports, by = c("dest" = "faa")) are flights that go to an airport that is not in FAA list of destinations, likely foreign airports.

anti_join(airports, flights, by = c("faa" = "dest")) are US airports that don’t have a flight in the data, meaning that there were no flights to that aiport from New York in 2013.

You might expect that there’s an implicit relationship between plane and airline, because each plane is flown by a single airline. Confirm or reject this hypothesis using the tools you’ve learned above.

There isn’t such a relationship, since planes can be sold or airlines can merge. However, that doesn’t necessarily mean that such a plane will appear in this data. There are eight planes which

flights %>%
  group_by(tailnum, carrier) %>%
  count() %>%
  filter(n() > 1) %>%
  select(tailnum) %>%
  distinct()
#> Source: local data frame [18 x 1]
#> Groups: tailnum [18]
#> 
#>   tailnum
#>     <chr>
#> 1  N146PQ
#> 2  N153PQ
#> 3  N176PQ
#> 4  N181PQ
#> 5  N197PQ
#> 6  N200PQ
#> # ... with 12 more rows
…
