…
```r
ggplot(mpg, aes(x = class, y = drv)) +
  geom_point()
```



\begin{center}\includegraphics[width=0.7\linewidth]{visualize_files/figure-latex/unnamed-chunk-7-1} \end{center}

A scatter plot is not a useful way to plot these variables, since both `drv` and `class` are factor variables taking a limited number of values.

```r
count(mpg, drv, class)
#> # A tibble: 12 x 3
#>   drv   class          n
#>   <chr> <chr>      <int>
#> 1 4     compact       12
#> 2 4     midsize        3
#> 3 4     pickup        33
#> 4 4     subcompact     4
#> 5 4     suv           51
#> 6 f     compact       35
#> # ... with 6 more rows
```
…
```r
?mpg
```

When printing the data frame, this information is given at the top of each column within angled brackets. Categorical variables have a class of "character" (`<chr>`).

```r
mpg
#> # A tibble: 234 x 11
#>   manufacturer model displ  year   cyl trans drv     cty   hwy fl    class
#>   <chr>        <chr> <dbl> <int> <int> <chr> <chr> <int> <int> <chr> <chr>
#> 1 audi         a4      1.8  1999     4 auto~ f        18    29 p     comp~
#> 2 audi         a4      1.8  1999     4 manu~ f        21    29 p     comp~
#> 3 audi         a4      2    2008     4 manu~ f        20    31 p     comp~
#> 4 audi         a4      2    2008     4 auto~ f        21    30 p     comp~
#> 5 audi         a4      2.8  1999     6 auto~ f        16    26 p     comp~
#> 6 audi         a4      2.8  1999     6 manu~ f        18    26 p     comp~
#> # ... with 228 more rows
```
…
