R for Data Science Solutions
…
A scatter plot is not a useful way to plot these variables, since both drv and class are factor variables taking a limited number of values.

count(mpg, drv, class)
#> # A tibble: 12 x 3
#>   drv   class          n
#>   <chr> <chr>      <int>
#> 1 4     compact       12
#> 2 4     midsize        3
#> 3 4     pickup        33
#> 4 4     subcompact     4
#> 5 4     suv           51
#> 6 f     compact       35
#> # ... with 6 more rows
…
3.3.2 Exercise 2.

Which variables in mpg are categorical?
Which variables are continuous?
(Hint: type ?mpg to read the documentation for the dataset).
How can you see this information when you run mpg?

?mpg

When printing the data frame, this information is given at the top of each column within angled brackets. Categorical variables have a class of “character” (<chr>).

mpg
#> # A tibble: 234 x 11
#>   manufacturer model displ  year   cyl trans drv     cty   hwy fl    class
#>   <chr>        <chr> <dbl> <int> <int> <chr> <chr> <int> <int> <chr> <chr>
#> 1 audi         a4     1.80  1999     4 auto… f        18    29 p     comp…
#> 2 audi         a4     1.80  1999     4 manu… f        21    29 p     comp…
#> 3 audi         a4     2.00  2008     4 manu… f        20    31 p     comp…
#> 4 audi         a4     2.00  2008     4 auto… f        21    30 p     comp…
#> 5 audi         a4     2.80  1999     6 auto… f        16    26 p     comp…
#> 6 audi         a4     2.80  1999     6 manu… f        18    26 p     comp…
#> # ... with 228 more rows
…
