…
R could not find the function `fliter` because we made a typo: `fliter` instead of `filter`.


```r
filter(mpg, cyl = 8)
#> Error: filter() takes unnamed arguments. Do you need `==`?
```

We aren't done yet. But the error message gives a suggestion. Let's follow it.


```r
filter(mpg, cyl == 8)
#> # A tibble: 70 × 11
#>   manufacturer              model displ  year   cyl    trans   drv   cty
#>          <chr>              <chr> <dbl> <int> <int>    <chr> <chr> <int>
#> 1         audi         a6 quattro   4.2  2008     8 auto(s6)     4    16
#> 2    chevrolet c1500 suburban 2wd   5.3  2008     8 auto(l4)     r    14
#> 3    chevrolet c1500 suburban 2wd   5.3  2008     8 auto(l4)     r    11
#> 4    chevrolet c1500 suburban 2wd   5.3  2008     8 auto(l4)     r    14
#> 5    chevrolet c1500 suburban 2wd   5.7  1999     8 auto(l4)     r    13
#> 6    chevrolet c1500 suburban 2wd   6.0  2008     8 auto(l4)     r    12
#> # ... with 64 more rows, and 3 more variables: hwy <int>, fl <chr>,
#> #   class <chr>
```


```r
filter(diamond, carat > 3)
#> Error in filter_(.data, .dots = lazyeval::lazy_dots(...)): object 'diamond' not found
```

R says it can't find the object `diamond`.
This is a typo; the data frame is named `diamonds`.

```r
filter(diamonds, carat > 3)
#> # A tibble: 32 × 10
#>   carat     cut color clarity depth table price     x     y     z
#>   <dbl>   <ord> <ord>   <ord> <dbl> <dbl> <int> <dbl> <dbl> <dbl>
#> 1  3.01 Premium     I      I1  62.7    58  8040  9.10  8.97  5.67
#> 2  3.11    Fair     J      I1  65.9    57  9823  9.15  9.02  5.98
#> 3  3.01 Premium     F      I1  62.2    56  9925  9.24  9.13  5.73
#> 4  3.05 Premium     E      I1  60.9    58 10453  9.26  9.25  5.66
#> 5  3.02    Fair     I      I1  65.2    56 10577  9.11  9.02  5.91
#> 6  3.01    Fair     H      I1  56.1    62 10761  9.54  9.38  5.31
#> # ... with 26 more rows
```
…
